\relax 
\providecommand\HyperFirstAtBeginDocument{\AtBeginDocument}
\HyperFirstAtBeginDocument{\ifx\hyper@anchor\@undefined
\global\let\oldcontentsline\contentsline
\gdef\contentsline#1#2#3#4{\oldcontentsline{#1}{#2}{#3}}
\global\let\oldnewlabel\newlabel
\gdef\newlabel#1#2{\newlabelxx{#1}#2}
\gdef\newlabelxx#1#2#3#4#5#6{\oldnewlabel{#1}{{#2}{#3}}}
\AtEndDocument{\ifx\hyper@anchor\@undefined
\let\contentsline\oldcontentsline
\let\newlabel\oldnewlabel
\fi}
\fi}
\global\let\hyper@last\relax 
\gdef\HyperFirstAtBeginDocument#1{#1}
\providecommand\HyField@AuxAddToFields[1]{}
\select@language{british}
\@writefile{toc}{\select@language{british}}
\@writefile{lof}{\select@language{british}}
\@writefile{lot}{\select@language{british}}
\citation{Afshordi:2012ez}
\citation{aslanbeigibuck}
\citation{hawking1975particle}
\citation{fulling1973nonuniqueness,davies1975scalar,unruh1976notes}
\citation{Mukhanov1992203}
\@writefile{toc}{\contentsline {chapter}{\numberline {1}Introduction}{12}{chapter.1}}
\@writefile{lof}{\addvspace {10\p@ }}
\@writefile{lot}{\addvspace {10\p@ }}
\citation{Wald:2009uh}
\citation{wald2009formulation,Afshordi:2012jf,Fewster:2012ew}
\citation{Dirac:1933}
\citation{Sorkin:2011pn,Afshordi:2012jf}
\citation{Johnston:2009fr}
\citation{Sorkin:2011pn}
\citation{Afshordi:2012jf}
\citation{rafaelprivate}
\citation{hawking1975large}
\@writefile{toc}{\contentsline {chapter}{\numberline {2}Background}{15}{chapter.2}}
\@writefile{lof}{\addvspace {10\p@ }}
\@writefile{lot}{\addvspace {10\p@ }}
\newlabel{chapter:background}{{2}{15}{Background\relax }{chapter.2}{}}
\@writefile{toc}{\contentsline {section}{\numberline {2.1}Quantum fields in curved spacetime}{15}{section.2.1}}
\newlabel{sec:qdtincst}{{2.1}{15}{Quantum fields in curved spacetime\relax }{section.2.1}{}}
\newlabel{eq:KG}{{2.1}{15}{Quantum fields in curved spacetime\relax }{equation.2.1.1}{}}
\newlabel{eq:KGnorm}{{2.2}{15}{Quantum fields in curved spacetime\relax }{equation.2.1.2}{}}
\newlabel{eq:GF}{{2.3}{15}{Quantum fields in curved spacetime\relax }{equation.2.1.3}{}}
\@writefile{toc}{\contentsline {subsection}{\numberline {2.1.1}Canonical quantisation}{16}{subsection.2.1.1}}
\newlabel{eq:equaltimecomm}{{2.4}{16}{Canonical quantisation\relax }{equation.2.1.4}{}}
\newlabel{eq:KGortho}{{2.5}{16}{Canonical quantisation\relax }{equation.2.1.5}{}}
\newlabel{eq:modesum}{{2.6}{16}{Canonical quantisation\relax }{equation.2.1.6}{}}
\newlabel{eq:ladderrels}{{2.7}{16}{Canonical quantisation\relax }{equation.2.1.7}{}}
\citation{peierls1952commutation,peierlsproof}
\newlabel{eq:commutationrelations}{{2.8}{17}{Canonical quantisation\relax }{equation.2.1.8}{}}
\newlabel{eq:firstdefofidelta}{{2.9}{17}{Canonical quantisation\relax }{equation.2.1.9}{}}
\@writefile{toc}{\contentsline {subsection}{\numberline {2.1.2}Non-uniqueness of the quantum state}{17}{subsection.2.1.2}}
\newlabel{eq:bogtransform}{{2.10}{17}{Non-uniqueness of the quantum state\relax }{equation.2.1.10}{}}
\newlabel{eq:posfreqmodes}{{2.14}{18}{Non-uniqueness of the quantum state\relax }{equation.2.1.14}{}}
\@writefile{toc}{\contentsline {subsection}{\numberline {2.1.3}Propagators}{18}{subsection.2.1.3}}
\citation{Johnston:2009fr}
\citation{Bombelli:1987aa}
\newlabel{eq:ideltasum}{{2.18}{19}{Propagators\relax }{equation.2.1.18}{}}
\newlabel{eq:posdefquadform}{{2.19}{19}{Propagators\relax }{equation.2.1.19}{}}
\@writefile{toc}{\contentsline {section}{\numberline {2.2}The discrete SJ state}{19}{section.2.2}}
\citation{Bombelli:1987aa,Sorkin:2003bx,Henson:2006kf}
\@writefile{toc}{\contentsline {subsection}{\numberline {2.2.1}Background on causal sets}{20}{subsection.2.2.1}}
\newlabel{eq:causalmatrix}{{2.21}{20}{Background on causal sets\relax }{equation.2.2.21}{}}
\citation{Henson:2006kf}
\citation{PSP:2063916,hawking:newtop,malament:class}
\citation{ilie2006numerical}
\citation{ilie2006numerical}
\citation{Johnston:2010su}
\@writefile{lof}{\contentsline {figure}{\numberline {2.1}{\ignorespaces An $N=200$ sprinkling into a causal diamond in two-dimensional Minkowski space. Only the irreducible relations are shown (i.e. those not implied by others via transitivity).\relax }}{22}{figure.caption.8}}
\providecommand*\caption@xref[2]{\@setref\relax\@undefined{#1}}
\newlabel{fig:sprinkling1}{{2.1}{22}{An $N=200$ sprinkling into a causal diamond in two-dimensional Minkowski space. Only the irreducible relations are shown (i.e. those not implied by others via transitivity).\relax \relax }{figure.caption.8}{}}
\@writefile{toc}{\contentsline {subsection}{\numberline {2.2.2}Definition}{22}{subsection.2.2.2}}
\citation{Johnston:2010su}
\citation{Johnston:2009fr}
\newlabel{eq:causetretarded}{{2.22}{23}{Definition\relax }{equation.2.2.22}{}}
\@writefile{toc}{\contentsline {subsection}{\numberline {2.2.3}Alternative definition}{25}{subsection.2.2.3}}
\newlabel{eq:sjaltcon}{{2.2.3}{25}{Alternative definition\relax }{subsection.2.2.3}{}}
\newlabel{eq:altconditiondiscrete1}{{2.35}{25}{Alternative definition\relax }{equation.2.2.35}{}}
\newlabel{eq:altconditiondiscrete2}{{2.36}{25}{Alternative definition\relax }{equation.2.2.36}{}}
\citation{Johnston:2010su}
\citation{Afshordi:2012jf,Fewster:2012ew}
\@writefile{toc}{\contentsline {section}{\numberline {2.3}The continuum SJ state}{26}{section.2.3}}
\citation{RS}
\@writefile{toc}{\contentsline {subsection}{\numberline {2.3.1}Definition}{27}{subsection.2.3.1}}
\newlabel{eq:ideltadef}{{2.41}{27}{Definition\relax }{equation.2.3.41}{}}
\newlabel{eq:eigenveceq}{{2.42}{27}{Definition\relax }{equation.2.3.42}{}}
\newlabel{eq:SJorthonormality}{{2.45}{28}{Definition\relax }{equation.2.3.45}{}}
\newlabel{eq:Q}{{2.47}{28}{Definition\relax }{equation.2.3.47}{}}
\newlabel{eq:W}{{2.48}{28}{Definition\relax }{equation.2.3.48}{}}
\citation{RS}
\citation{Afshordi:2012jf,Fewster:2012ew}
\citation{Fewster:2012ew}
\newlabel{eq:hsusefulrelation}{{2.54}{29}{Definition\relax }{equation.2.3.54}{}}
\@writefile{toc}{\contentsline {subsection}{\numberline {2.3.2}Explicit construction}{30}{subsection.2.3.2}}
\newlabel{sec:sj-explicitconstruction}{{2.3.2}{30}{Explicit construction\relax }{subsection.2.3.2}{}}
\newlabel{eq:sjbogtrans}{{2.55}{30}{Explicit construction\relax }{equation.2.3.55}{}}
\newlabel{eq:alphabetarelations}{{2.57}{31}{Explicit construction\relax }{equation.2.3.57}{}}
\newlabel{eq:QuasiBogTans}{{2.58}{31}{Explicit construction\relax }{equation.2.3.58}{}}
\@writefile{toc}{\contentsline {subsection}{\numberline {2.3.3}Alternative Definition}{31}{subsection.2.3.3}}
\newlabel{sec:contaltdef}{{2.3.3}{31}{Alternative Definition\relax }{subsection.2.3.3}{}}
\citation{wald2009formulation,wald1994quantum}
\citation{Fewster}
\@writefile{toc}{\contentsline {subsection}{\numberline {2.3.4}The Hadamard property}{33}{subsection.2.3.4}}
\@writefile{toc}{\contentsline {chapter}{\numberline {3}The SJ state in the flat causal diamond in two dimensions}{34}{chapter.3}}
\@writefile{lof}{\addvspace {10\p@ }}
\@writefile{lot}{\addvspace {10\p@ }}
\newlabel{chapter:diamond}{{3}{34}{The SJ state in the flat causal diamond in two dimensions\relax }{chapter.3}{}}
\citation{Coleman:1973ci,Abdalla:1991vua,Faber:2002ve}
\citation{Abdalla:1991vua}
\@writefile{toc}{\contentsline {section}{\numberline {3.1}The massless scalar field in two-dimensional flat spacetimes}{35}{section.3.1}}
\newlabel{sec:fieldtwodimflat}{{3.1}{35}{The massless scalar field in two-dimensional flat spacetimes\relax }{section.3.1}{}}
\newlabel{mink}{{3.1}{35}{The massless scalar field in two-dimensional flat spacetimes\relax }{equation.3.1.1}{}}
\newlabel{KG_mink}{{3.2}{35}{The massless scalar field in two-dimensional flat spacetimes\relax }{equation.3.1.2}{}}
\newlabel{modes}{{3.3}{35}{The massless scalar field in two-dimensional flat spacetimes\relax }{equation.3.1.3}{}}
\citation{Rindler:1966zz,Rindler:2006km}
\newlabel{Wight_Mink_cut-off}{{3.5}{36}{The massless scalar field in two-dimensional flat spacetimes\relax }{equation.3.1.5}{}}
\newlabel{Wight_Mink}{{3.6}{36}{The massless scalar field in two-dimensional flat spacetimes\relax }{equation.3.1.6}{}}
\citation{Fulling:1972md}
\@writefile{lof}{\contentsline {figure}{\numberline {3.1}{\ignorespaces The left and right Rindler wedges of two-dimensional Minkowski spacetime.\relax }}{37}{figure.caption.9}}
\newlabel{wedge}{{3.1}{37}{The left and right Rindler wedges of two-dimensional Minkowski spacetime.\relax \relax }{figure.caption.9}{}}
\newlabel{rindler}{{3.8}{37}{The massless scalar field in two-dimensional flat spacetimes\relax }{equation.3.1.8}{}}
\newlabel{16}{{3.9}{37}{The massless scalar field in two-dimensional flat spacetimes\relax }{equation.3.1.9}{}}
\citation{Fulling:1972md,Davies:1974th,Unruh:1976db}
\citation{Afshordi:2012jf}
\newlabel{20}{{3.10}{38}{The massless scalar field in two-dimensional flat spacetimes\relax }{equation.3.1.10}{}}
\@writefile{toc}{\contentsline {subsection}{\numberline {3.1.1}The SJ state in Rindler space}{39}{subsection.3.1.1}}
\newlabel{29}{{3.11}{39}{The SJ state in Rindler space\relax }{equation.3.1.11}{}}
\newlabel{30}{{3.12}{39}{The SJ state in Rindler space\relax }{equation.3.1.12}{}}
\newlabel{31}{{3.13}{40}{The SJ state in Rindler space\relax }{equation.3.1.13}{}}
\@writefile{toc}{\contentsline {section}{\numberline {3.2}The massless SJ two-point function in the flat causal diamond}{41}{section.3.2}}
\newlabel{sec:masslessSJdiamond}{{3.2}{41}{The massless SJ two-point function in the flat causal diamond\relax }{section.3.2}{}}
\@writefile{lof}{\contentsline {figure}{\numberline {3.2}{\ignorespaces The causal diamond, $u,v\in (-L,L)$. The shaded portions of the diagram represent the centre $(i)$ and corner $(ii)$ regions of interest in Section~\ref  {sec_results}.\relax }}{42}{figure.caption.10}}
\newlabel{fig:diamond}{{3.2}{42}{The causal diamond, $u,v\in (-L,L)$. The shaded portions of the diagram represent the centre $(i)$ and corner $(ii)$ regions of interest in Section~\ref {sec_results}.\relax \relax }{figure.caption.10}{}}
\newlabel{eq:36}{{3.18}{42}{The massless SJ two-point function in the flat causal diamond\relax }{equation.3.2.18}{}}
\citation{Johnston:2010su}
\citation{Johnston:2010su}
\citation{Johnston:2010su,speigel1953summation}
\newlabel{eq:HilbertSchmidmink}{{3.19}{43}{The massless SJ two-point function in the flat causal diamond\relax }{equation.3.2.19}{}}
\newlabel{eq:SJfunctions}{{3.20}{43}{The massless SJ two-point function in the flat causal diamond\relax }{equation.3.2.20}{}}
\newlabel{46}{{3.21}{43}{The massless SJ two-point function in the flat causal diamond\relax }{equation.3.2.21}{}}
\newlabel{47}{{3.22}{43}{The massless SJ two-point function in the flat causal diamond\relax }{equation.3.2.22}{}}
\newlabel{eq:sum1}{{3.23}{43}{The massless SJ two-point function in the flat causal diamond\relax }{equation.3.2.23}{}}
\@writefile{lof}{\contentsline {figure}{\numberline {3.3}{\ignorespaces Plot of $\qopname  \relax o{tan}x$ and $2x$ along with vertical lines at $\frac  {2n-1}{2}\pi $ for $n\in \mathbb  Z$. The values of the summation variable correspond to the positions of the intersections $\qopname  \relax o{tan}x = 2x>0$.\relax }}{44}{figure.caption.11}}
\newlabel{Transcendental plot}{{3.3}{44}{Plot of $\tan x$ and $2x$ along with vertical lines at $\frac {2n-1}{2}\pi $ for $n\in \mathbb Z$. The values of the summation variable correspond to the positions of the intersections $\tan x = 2x>0$.\relax \relax }{figure.caption.11}{}}
\newlabel{eq:firstsum}{{3.24}{44}{The massless SJ two-point function in the flat causal diamond\relax }{equation.3.2.24}{}}
\newlabel{eq:sum2}{{3.25}{44}{The massless SJ two-point function in the flat causal diamond\relax }{equation.3.2.25}{}}
\newlabel{eq:epsdef}{{3.27}{45}{The massless SJ two-point function in the flat causal diamond\relax }{equation.3.2.27}{}}
\newlabel{eq:secondsum}{{3.28}{45}{The massless SJ two-point function in the flat causal diamond\relax }{equation.3.2.28}{}}
\newlabel{eq:SJbox}{{3.29}{45}{The massless SJ two-point function in the flat causal diamond\relax }{equation.3.2.29}{}}
\@writefile{toc}{\contentsline {subsection}{\numberline {3.2.1}The SJ state in the centre and corner}{45}{subsection.3.2.1}}
\newlabel{sec_results}{{3.2.1}{45}{The SJ state in the centre and corner\relax }{subsection.3.2.1}{}}
\newlabel{eq:restrict}{{3.30}{46}{The SJ state in the centre and corner\relax }{equation.3.2.30}{}}
\@writefile{toc}{\contentsline {subsubsection}{The centre}{46}{section*.12}}
\newlabel{eq:SJtpcentrecomplete}{{3.33}{47}{The centre\relax }{equation.3.2.33}{}}
\newlabel{eq:lambda}{{3.34}{47}{The centre\relax }{equation.3.2.34}{}}
\citation{Birrell:1982ix,Davies:1976hi}
\@writefile{toc}{\contentsline {subsubsection}{The corner}{48}{section*.13}}
\newlabel{64}{{3.36}{48}{The corner\relax }{equation.3.2.36}{}}
\newlabel{65}{{3.37}{48}{The corner\relax }{equation.3.2.37}{}}
\citation{Johnston:2010su}
\@writefile{toc}{\contentsline {section}{\numberline {3.3}Comparison with the discrete SJ state}{49}{section.3.3}}
\newlabel{sec_cset}{{3.3}{49}{Comparison with the discrete SJ state\relax }{section.3.3}{}}
\@writefile{toc}{\contentsline {subsection}{\numberline {3.3.1}Causal sets and discrete propagators}{50}{subsection.3.3.1}}
\@writefile{toc}{\contentsline {subsection}{\numberline {3.3.2}The SJ state in the centre}{50}{subsection.3.3.2}}
\@writefile{lof}{\contentsline {figure}{\numberline {3.4}{\ignorespaces An $N=2^{11}=2048$ element sprinkling into a diamond $\textsf  {C}_L$ (with $L=2^{\frac  92}$ in natural units). The subregions corresponding to the centre $(i)$ and the corner $(ii)$ are highlighted.\relax }}{51}{figure.caption.14}}
\newlabel{causetsprinkling}{{3.4}{51}{An $N=2^{11}=2048$ element sprinkling into a diamond $\textsf {C}_L$ (with $L=2^{\frac 92}$ in natural units). The subregions corresponding to the centre $(i)$ and the corner $(ii)$ are highlighted.\relax \relax }{figure.caption.14}{}}
\newlabel{eq:sjcentre}{{3.38}{51}{The SJ state in the centre\relax }{equation.3.3.38}{}}
\@writefile{toc}{\contentsline {subsection}{\numberline {3.3.3}The SJ state in the corner and in the full diamond}{51}{subsection.3.3.3}}
\@writefile{lof}{\contentsline {figure}{\numberline {3.5}{\ignorespaces The real parts of the continuum two-point function $W_{\mathsf  M, \lambda }(x,x')$ (black line) with $\lambda =0.02$ and the discrete SJ two-point function $\mathbf  W_{ij}$ (blue scatter) in the centre of the finite diamond $\textsf  {C}_L$ with $L=2^\frac  92$, plotted against the proper time $|d|$ for timelike separated events.\relax }}{52}{figure.caption.15}}
\newlabel{fm}{{3.5}{52}{The real parts of the continuum two-point function $W_{\mathsf M, \lambda }(x,x')$ (black line) with $\lambda =0.02$ and the discrete SJ two-point function $\mathbf W_{ij}$ (blue scatter) in the centre of the finite diamond $\textsf {C}_L$ with $L=2^\frac 92$, plotted against the proper time $|d|$ for timelike separated events.\relax \relax }{figure.caption.15}{}}
\@writefile{lof}{\contentsline {figure}{\numberline {3.6}{\ignorespaces Correlation plots for the two-point functions in the corner of the causal diamond. The horizontal axis represents the causal set two-point function $\mathbf  W_{ij}$. The vertical axes represent (from left to right, top to bottom): the SJ, the Minkowski, the mirror, and the Rindler two-point functions.\relax }}{53}{figure.caption.16}}
\newlabel{fig:corrcorner}{{3.6}{53}{Correlation plots for the two-point functions in the corner of the causal diamond. The horizontal axis represents the causal set two-point function $\mathbf W_{ij}$. The vertical axes represent (from left to right, top to bottom): the SJ, the Minkowski, the mirror, and the Rindler two-point functions.\relax \relax }{figure.caption.16}{}}
\@writefile{lof}{\contentsline {figure}{\numberline {3.7}{\ignorespaces Correlation plots for the two-point functions in the full causal diamond. The horizontal axis represents the causal set two-point function $\mathbf  W_{ij}$. The vertical axes represent (from left to right, top to bottom): the SJ, the Minkowski, the left mirror, the box (two mirrors) and the Rindler two-point functions.\relax }}{54}{figure.caption.17}}
\newlabel{fig:corrfull}{{3.7}{54}{Correlation plots for the two-point functions in the full causal diamond. The horizontal axis represents the causal set two-point function $\mathbf W_{ij}$. The vertical axes represent (from left to right, top to bottom): the SJ, the Minkowski, the left mirror, the box (two mirrors) and the Rindler two-point functions.\relax \relax }{figure.caption.17}{}}
\@writefile{toc}{\contentsline {section}{\numberline {3.4}Conclusions}{54}{section.3.4}}
\newlabel{sec_conclude}{{3.4}{54}{Conclusions\relax }{section.3.4}{}}
\citation{Avilan:2014hra}
\citation{Afshordi:2012jf}
\citation{schmidt1993sitter}
\@writefile{toc}{\contentsline {chapter}{\numberline {4}The SJ state in de Sitter space}{57}{chapter.4}}
\@writefile{lof}{\addvspace {10\p@ }}
\@writefile{lot}{\addvspace {10\p@ }}
\newlabel{chapter:desitter}{{4}{57}{The SJ state in de Sitter space\relax }{chapter.4}{}}
\@writefile{toc}{\contentsline {section}{\numberline {4.1}Geometry of de Sitter Space}{58}{section.4.1}}
\newlabel{dSgeom}{{4.1}{58}{Geometry of de Sitter Space\relax }{section.4.1}{}}
\newlabel{eq:desitter}{{4.1}{58}{Geometry of de Sitter Space\relax }{equation.4.1.1}{}}
\newlabel{ZZ}{{4.2}{58}{Geometry of de Sitter Space\relax }{equation.4.1.2}{}}
\citation{Spradlin:2001pw}
\@writefile{lof}{\contentsline {figure}{\numberline {4.1}{\ignorespaces The Penrose diagram of de Sitter space. The shaded area represents the (expanding) Poincar\'e patch. Dotted lines are surfaces of constant $t$ ($d-$spheres), dashed lines are surfaces of constant $\eta $ ($d-$planes). \relax }}{59}{figure.caption.18}}
\newlabel{fig:desitterpenrose}{{4.1}{59}{The Penrose diagram of de Sitter space. The shaded area represents the (expanding) Poincar\'e patch. Dotted lines are surfaces of constant $t$ ($d-$spheres), dashed lines are surfaces of constant $\eta $ ($d-$planes). \relax \relax }{figure.caption.18}{}}
\@writefile{toc}{\contentsline {subsection}{\numberline {4.1.1}The global patch of de Sitter space, $dS^D$}{60}{subsection.4.1.1}}
\newlabel{GlobalCoord}{{4.1.1}{60}{The global patch of de Sitter space, $dS^D$\relax }{subsection.4.1.1}{}}
\newlabel{eq:globalMetric}{{4.7}{60}{The global patch of de Sitter space, $dS^D$\relax }{equation.4.1.7}{}}
\@writefile{toc}{\contentsline {subsection}{\numberline {4.1.2}The Poincar\'e patch of de Sitter space, $dS^D_P$}{60}{subsection.4.1.2}}
\newlabel{CosmoCoord}{{4.1.2}{60}{The Poincar\'e patch of de Sitter space, $dS^D_P$\relax }{subsection.4.1.2}{}}
\newlabel{eq:poincareCoord}{{4.8}{60}{The Poincar\'e patch of de Sitter space, $dS^D_P$\relax }{equation.4.1.8}{}}
\citation{Mottola:1984ar,allen1985vacuum}
\citation{schomblond1976conditions}
\citation{Candelas:1977tt,Dowker:1975xj,Einhorn:2002nu}
\citation{birrell1984quantum,Bousso:2001mw}
\citation{Tagirov:1972vv,bunch1978quantum}
\newlabel{eq:poincareMetric}{{4.9}{61}{The Poincar\'e patch of de Sitter space, $dS^D_P$\relax }{equation.4.1.9}{}}
\@writefile{toc}{\contentsline {section}{\numberline {4.2}Vacuum states in de Sitter space}{61}{section.4.2}}
\newlabel{MAstates}{{4.2}{61}{Vacuum states in de Sitter space\relax }{section.4.2}{}}
\@writefile{toc}{\contentsline {subsection}{\numberline {4.2.1}BD modes}{62}{subsection.4.2.1}}
\newlabel{eq:poincaremodes2}{{4.10}{62}{BD modes\relax }{equation.4.2.10}{}}
\newlabel{eq:hankelpoincare}{{4.11}{62}{BD modes\relax }{equation.4.2.11}{}}
\newlabel{eq:posneg1}{{4.13}{62}{BD modes\relax }{equation.4.2.13}{}}
\@writefile{toc}{\contentsline {subsection}{\numberline {4.2.2}Euclidean modes}{62}{subsection.4.2.2}}
\newlabel{eq:globalmodes2}{{4.14}{62}{Euclidean modes\relax }{equation.4.2.14}{}}
\citation{Tagirov:1972vv,Candelas:1976jv}
\citation{allen1985vacuum}
\newlabel{eq:posneg2}{{4.17}{63}{Euclidean modes\relax }{equation.4.2.17}{}}
\@writefile{toc}{\contentsline {subsection}{\numberline {4.2.3}Two-point functions and $\alpha $-vacua}{63}{subsection.4.2.3}}
\newlabel{sec:wightmanandalphavacs}{{4.2.3}{63}{Two-point functions and $\alpha $-vacua\relax }{subsection.4.2.3}{}}
\newlabel{eq:euclideantwopointfunction}{{4.18}{63}{Two-point functions and $\alpha $-vacua\relax }{equation.4.2.18}{}}
\citation{allen1985vacuum}
\citation{allen1985vacuum}
\citation{Mottola:1984ar,Bousso:2001mw}
\newlabel{eq:mamodesP}{{4.19}{64}{Two-point functions and $\alpha $-vacua\relax }{equation.4.2.19}{}}
\newlabel{eq:mamodes}{{4.20}{64}{Two-point functions and $\alpha $-vacua\relax }{equation.4.2.20}{}}
\newlabel{eq:MApropagator}{{4.21}{64}{Two-point functions and $\alpha $-vacua\relax }{equation.4.2.21}{}}
\citation{Mottola:1984ar,Bousso:2001mw}
\citation{Bousso:2001mw}
\citation{Bousso:2001mw,Lagogiannis:2011st}
\citation{Bousso:2001mw}
\citation{Yagdjian:2013}
\@writefile{toc}{\contentsline {section}{\numberline {4.3}The SJ state in de Sitter space}{66}{section.4.3}}
\@writefile{toc}{\contentsline {subsection}{\numberline {4.3.1}The SJ state in the Poincar\'e patch}{67}{subsection.4.3.1}}
\newlabel{sec:poincare}{{4.3.1}{67}{The SJ state in the Poincar\'e patch\relax }{subsection.4.3.1}{}}
\newlabel{eq:BogGeneral}{{4.27}{67}{The SJ state in the Poincar\'e patch\relax }{equation.4.3.27}{}}
\newlabel{eq:poincareratio}{{4.28}{67}{The SJ state in the Poincar\'e patch\relax }{equation.4.3.28}{}}
\citation{Olver:2010:NHM:1830479}
\citation{Olver:2010:NHM:1830479}
\newlabel{eq:poincareratio2}{{4.32}{68}{The SJ state in the Poincar\'e patch\relax }{equation.4.3.32}{}}
\newlabel{eq:hank1}{{4.33}{68}{The SJ state in the Poincar\'e patch\relax }{equation.4.3.33}{}}
\newlabel{eq:hank2}{{4.34}{68}{The SJ state in the Poincar\'e patch\relax }{equation.4.3.34}{}}
\citation{Olver:2010:NHM:1830479}
\newlabel{eq:secondlimpoinc}{{4.37}{69}{The SJ state in the Poincar\'e patch\relax }{equation.4.3.37}{}}
\newlabel{gamma}{{4.38}{69}{The SJ state in the Poincar\'e patch\relax }{equation.4.3.38}{}}
\@writefile{toc}{\contentsline {subsection}{\numberline {4.3.2}The SJ state in the global patch}{70}{subsection.4.3.2}}
\newlabel{eq:BogGeneral2}{{4.46}{70}{The SJ state in the global patch\relax }{equation.4.3.46}{}}
\newlabel{eq:globalratio}{{4.47}{70}{The SJ state in the global patch\relax }{equation.4.3.47}{}}
\newlabel{eq:globalcoeffs}{{4.57}{72}{The SJ state in the global patch\relax }{equation.4.3.57}{}}
\citation{Fewster:2012ew}
\newlabel{eq:mavaceven}{{4.61}{73}{The SJ state in the global patch\relax }{equation.4.3.61}{}}
\newlabel{eq:mavacodd}{{4.62}{73}{The SJ state in the global patch\relax }{equation.4.3.62}{}}
\@writefile{lof}{\contentsline {figure}{\numberline {4.2}{\ignorespaces  The SJ state in the global patch of $3+1$ dimensional de Sitter space. The SJ modefunctions $u^{SJ}_{Lj}$ are related to those of the Euclidean vacuum $u^{E}_{Lj}$ by the Bogoliubov transformation $u^{SJ}_{Lj}=\qopname  \relax o{cosh}(\alpha )u^{E}_{Lj}+\qopname  \relax o{sinh}(\alpha )e^{i\beta }\overline  {u}^{E}_{Lj}$, the second coefficient of which is plotted here. Depending on the product $m\ell $, where $m$ is the mass of the field and $\ell $ is the de Sitter radius, the SJ state corresponds to different $\alpha $-vacua. For $m\ell \ge 3/2$ and $m\ell =\sqrt  {5/4}$, it coincides with the Euclidean vacuum. The prescription fails for $m\ell =\sqrt  {2}$. \relax }}{74}{figure.caption.19}}
\newlabel{fig:betaplot}{{4.2}{74}{The SJ state in the global patch of $3+1$ dimensional de Sitter space. The SJ modefunctions $u^{SJ}_{Lj}$ are related to those of the Euclidean vacuum $u^{E}_{Lj}$ by the Bogoliubov transformation $u^{SJ}_{Lj}=\cosh (\alpha )u^{E}_{Lj}+\sinh (\alpha )e^{i\beta }\overline {u}^{E}_{Lj}$, the second coefficient of which is plotted here. Depending on the product $m\ell $, where $m$ is the mass of the field and $\ell $ is the de Sitter radius, the SJ state corresponds to different $\alpha $-vacua. For $m\ell \ge 3/2$ and $m\ell =\sqrt {5/4}$, it coincides with the Euclidean vacuum. The prescription fails for $m\ell =\sqrt {2}$. \relax \relax }{figure.caption.19}{}}
\citation{Tagirov:1972vv}
\citation{bertola1999correspondence,deBoer:2003vf}
\@writefile{toc}{\contentsline {subsection}{\numberline {4.3.3}The critical mass $m_*$}{75}{subsection.4.3.3}}
\newlabel{sec:criticalmass}{{4.3.3}{75}{The critical mass $m_*$\relax }{subsection.4.3.3}{}}
\newlabel{eq:asympinoutdecay}{{4.65}{75}{The critical mass $m_*$\relax }{equation.4.3.65}{}}
\citation{matsumoto1998mersenne}
\@writefile{toc}{\contentsline {section}{\numberline {4.4}The discrete SJ state on a sprinkling into $dS^2$}{76}{section.4.4}}
\@writefile{toc}{\contentsline {subsection}{\numberline {4.4.1}Sprinkling into a causal diamond in $dS^2$}{76}{subsection.4.4.1}}
\citation{Schmitzer:2010to}
\citation{Afshordi:2012ez}
\newlabel{eq:conditiononf}{{4.67}{77}{Sprinkling into a causal diamond in $dS^2$\relax }{equation.4.4.67}{}}
\@writefile{toc}{\contentsline {subsection}{\numberline {4.4.2}Simulation results}{77}{subsection.4.4.2}}
\@writefile{lof}{\contentsline {figure}{\numberline {4.3}{\ignorespaces An $N=1010$ element sprinkling with density $\rho =76\ell ^{-2}$ into a causal diamond of length $\tau =8\ell $ in two-dimensional de Sitter space, visualised in the embedding three-dimensional Minkowski space (see Section~\ref  {dSgeom}). The de Sitter radius has been set to $\ell =1$. \relax }}{78}{figure.caption.20}}
\newlabel{fig:desittersprinkling}{{4.3}{78}{An $N=1010$ element sprinkling with density $\rho =76\ell ^{-2}$ into a causal diamond of length $\tau =8\ell $ in two-dimensional de Sitter space, visualised in the embedding three-dimensional Minkowski space (see Section~\ref {dSgeom}). The de Sitter radius has been set to $\ell =1$. \relax \relax }{figure.caption.20}{}}
\newlabel{fig:retprop}{{4.4}{79}{\relax }{figure.caption.21}{}}
\citation{Gazeau:2007zz}
\@writefile{lof}{\contentsline {figure}{\numberline {4.5}{\ignorespaces  The Hadamard function $\mathbf  H_{SJ}$ on an $N=1010$ sprinkling of into a causal diamond of length $\tau =8\ell $ in $1+1$ dimensional de Sitter space. The mass of the field is taken to be $m=2.36\ell ^{-1}$, and the de Sitter radius $\ell $ is set to unity. The geodesic distance $|d|$ between the two arguments of the function is plotted on the horizontal axis for timelike (above) and spacelike (below) separated points. The error bars show the standard deviation about the mean of $\mathbf  H_{SJ}$ for binned values of $|d|$. $H_{\alpha ,\beta }(x,y)$ refers to the Hadamard function of the $\alpha $-vacua (see Section~\ref  {MAstates}). The function $H_{0.1,0}$ has been omitted in (a), since it is indistinguishable from the Euclidean function $H_E$. \relax }}{80}{figure.caption.22}}
\newlabel{fig:causetplot}{{4.5}{80}{The Hadamard function $\mathbf H_{SJ}$ on an $N=1010$ sprinkling of into a causal diamond of length $\tau =8\ell $ in $1+1$ dimensional de Sitter space. The mass of the field is taken to be $m=2.36\ell ^{-1}$, and the de Sitter radius $\ell $ is set to unity. The geodesic distance $|d|$ between the two arguments of the function is plotted on the horizontal axis for timelike (above) and spacelike (below) separated points. The error bars show the standard deviation about the mean of $\mathbf H_{SJ}$ for binned values of $|d|$. $H_{\alpha ,\beta }(x,y)$ refers to the Hadamard function of the $\alpha $-vacua (see Section~\ref {MAstates}). The function $H_{0.1,0}$ has been omitted in (a), since it is indistinguishable from the Euclidean function $H_E$. \relax \relax }{figure.caption.22}{}}
\citation{Fukuma:2013mx}
\citation{Marolf:2010zp,Jatkar:2011ju}
\citation{Marolf:2012kh,Bros:2008sq,Bros:2006gs}
\@writefile{lot}{\contentsline {table}{\numberline {4.1}{\ignorespaces The SJ state in the global and Poincar\'e patches of de Sitter space. Depending on the mass $m$ of the field, the SJ state corresponds to different $\alpha $-vacua (the Euclidean, in- and out- vacua are all special cases of $\alpha $-vacua and in odd spacetime dimensions the in- and out-vacua coincide). The critical mass that marks these transitions is $m_*=\frac  {d}{2\ell }$, where $d$ is the spatial dimension and $\ell $ is the de Sitter radius. \relax }}{81}{table.caption.23}}
\newlabel{tab:SJstates}{{4.1}{81}{The SJ state in the global and Poincar\'e patches of de Sitter space. Depending on the mass $m$ of the field, the SJ state corresponds to different $\alpha $-vacua (the Euclidean, in- and out- vacua are all special cases of $\alpha $-vacua and in odd spacetime dimensions the in- and out-vacua coincide). The critical mass that marks these transitions is $m_*=\frac {d}{2\ell }$, where $d$ is the spatial dimension and $\ell $ is the de Sitter radius. \relax \relax }{table.caption.23}{}}
\@writefile{toc}{\contentsline {section}{\numberline {4.5}Conclusions}{81}{section.4.5}}
\citation{Fewster:2012ew}
\citation{allen1985vacuum}
\citation{2000CMaPh.208..623B,Hollands:2001nf,Hollands:2001fb}
\citation{Brunetti:2005pr}
\citation{Afshordi:2012ez}
\citation{Brum:2013bia}
\citation{Johnston:2008za}
\citation{leray1953hyperbolic,hawking1975large}
\citation{Avis:1977yn}
\citation{Geroch:1970uw}
\citation{Geroch:1967fs}
\citation{Sorkin:1997gi,thorne1993closed}
\citation{Sorkin:1989ea}
\citation{Dray:1991zz}
\citation{Gibbons:2011dh}
\citation{Wheeler1957604}
\citation{Sorkin:1997gi}
\citation{wheeler1955geons,Sorkin:1986geons}
\citation{Sorkin:1996yt,Sorkin:1989ea}
\@writefile{toc}{\contentsline {chapter}{\numberline {5}Remarks on the SJ state in the trousers spacetime}{84}{chapter.5}}
\@writefile{lof}{\addvspace {10\p@ }}
\@writefile{lot}{\addvspace {10\p@ }}
\newlabel{chapter:trousers}{{5}{84}{Remarks on the SJ state in the trousers spacetime\relax }{chapter.5}{}}
\citation{Anderson:1986ww}
\citation{Copeland:1988tr}
\citation{Dowker:1997hj}
\citation{Louko:1995jw}
\@writefile{lof}{\contentsline {figure}{\numberline {5.1}{\ignorespaces The ``trousers'' spacetime with topology-change $S^1\leftrightarrow S^1\times S^1$.\relax }}{86}{figure.caption.24}}
\newlabel{fig:trousers-3d}{{5.1}{86}{The ``trousers'' spacetime with topology-change $S^1\leftrightarrow S^1\times S^1$.\relax \relax }{figure.caption.24}{}}
\@writefile{toc}{\contentsline {section}{\numberline {5.1}Quantum Fields in the trousers spacetime}{87}{section.5.1}}
\newlabel{sec:qftintrousers}{{5.1}{87}{Quantum Fields in the trousers spacetime\relax }{section.5.1}{}}
\@writefile{lof}{\contentsline {figure}{\numberline {5.2}{\ignorespaces The trousers spacetime (left) and a two-dimensional representation of it (right) obtained by cutting and unwrapping the manifold. The coloured arrows indicate the respective identifications in the trunk (blue) and in the left and right legs (yellow and red). The crosses mark the location of the crotch singularity.\relax }}{88}{figure.caption.25}}
\newlabel{fig:trousers-flattened-raw}{{5.2}{88}{The trousers spacetime (left) and a two-dimensional representation of it (right) obtained by cutting and unwrapping the manifold. The coloured arrows indicate the respective identifications in the trunk (blue) and in the left and right legs (yellow and red). The crosses mark the location of the crotch singularity.\relax \relax }{figure.caption.25}{}}
\@writefile{lof}{\contentsline {figure}{\numberline {5.3}{\ignorespaces The pair of diamonds in more detail. The coloured arrows indicate the topological identifications inherited from the trousers (Figure~\ref  {fig:trousers-flattened-raw}).\relax }}{89}{figure.caption.26}}
\newlabel{fig:pairofdiamonds}{{5.3}{89}{The pair of diamonds in more detail. The coloured arrows indicate the topological identifications inherited from the trousers (Figure~\ref {fig:trousers-flattened-raw}).\relax \relax }{figure.caption.26}{}}
\@writefile{toc}{\contentsline {section}{\numberline {5.2}The pair of diamonds}{89}{section.5.2}}
\@writefile{toc}{\contentsline {section}{\numberline {5.3}Propagators in the trousers}{91}{section.5.3}}
\@writefile{lot}{\contentsline {table}{\numberline {5.1}{\ignorespaces  Some subregions of the pair of diamonds and their labels. All regions except the last two are defined with respect to $D_1$ --- for these there are analogous regions defined with respect to $D_2$. Note that the upper left and right diagonal regions as well as the left and right leg regions extend over both diamonds (as evident in their symbols). \relax }}{92}{table.caption.27}}
\newlabel{tab:pod-regions}{{5.1}{92}{Some subregions of the pair of diamonds and their labels. All regions except the last two are defined with respect to $D_1$ --- for these there are analogous regions defined with respect to $D_2$. Note that the upper left and right diagonal regions as well as the left and right leg regions extend over both diamonds (as evident in their symbols). \relax \relax }{table.caption.27}{}}
\@writefile{toc}{\contentsline {subsection}{\numberline {5.3.1}Integral form of Green's equation}{92}{subsection.5.3.1}}
\citation{sorkin:stokes,garcia1998divergence}
\@writefile{lof}{\contentsline {figure}{\numberline {5.4}{\ignorespaces A naive ansatz for the retarded propagator $G_R(x,y)=-\frac  12\chi (x\succ y)$ in the trousers, drawn as a function of $y$ for fixed $x\succ x_c$ represented by the black dot. The function is equal to $-\frac  12$ in the shaded region and zero everywhere else. The dashed contour corresponds to the boundary of a causal diamond centred on the singularity.\relax }}{93}{figure.caption.28}}
\newlabel{fig:gret-on-pod-false}{{5.4}{93}{A naive ansatz for the retarded propagator $G_R(x,y)=-\frac 12\chi (x\succ y)$ in the trousers, drawn as a function of $y$ for fixed $x\succ x_c$ represented by the black dot. The function is equal to $-\frac 12$ in the shaded region and zero everywhere else. The dashed contour corresponds to the boundary of a causal diamond centred on the singularity.\relax \relax }{figure.caption.28}{}}
\newlabel{eq:alternativegreen}{{5.5}{94}{Integral form of Green's equation\relax }{equation.5.3.5}{}}
\newlabel{eq:contour-op}{{5.6}{94}{Integral form of Green's equation\relax }{equation.5.3.6}{}}
\@writefile{toc}{\contentsline {subsection}{\numberline {5.3.2}The field equations near the singularity}{94}{subsection.5.3.2}}
\newlabel{eq:alternativegreen2}{{5.7}{94}{The field equations near the singularity\relax }{equation.5.3.7}{}}
\newlabel{eq:twoeoms}{{5.8}{95}{The field equations near the singularity\relax }{equation.5.3.8}{}}
\@writefile{toc}{\contentsline {subsection}{\numberline {5.3.3}A one-parameter family of propagators}{95}{subsection.5.3.3}}
\newlabel{eq:newdefofprop}{{5.10}{95}{A one-parameter family of propagators\relax }{equation.5.3.10}{}}
\@writefile{lof}{\contentsline {figure}{\numberline {5.5}{\ignorespaces The modified propagator $G_R(x,y)=G_A(y,x)$ for fixed $x$ in $\TRone $. In order for the integral version of Green's equation to vanish for a small contour around the singularity, we need $b_1+b_2=1$.\relax }}{96}{figure.caption.29}}
\newlabel{fig:gret-on-pod-bs}{{5.5}{96}{The modified propagator $G_R(x,y)=G_A(y,x)$ for fixed $x$ in $\protect \TRone $. In order for the integral version of Green's equation to vanish for a small contour around the singularity, we need $b_1+b_2=1$.\relax \relax }{figure.caption.29}{}}
\newlabel{eq:podpropcond1}{{5.11}{96}{A one-parameter family of propagators\relax }{equation.5.3.11}{}}
\newlabel{eq:gret-on-pod-bs}{{5.14}{97}{A one-parameter family of propagators\relax }{equation.5.3.14}{}}
\@writefile{lof}{\contentsline {figure}{\numberline {5.6}{\ignorespaces The modified propagator $G_{A,p}(x,y)=G_{R,p}(y,x)$ for fixed $x$ in $\Bone $. Here $q=1-p$.\relax }}{98}{figure.caption.30}}
\newlabel{fig:gadv-on-pod-ps}{{5.6}{98}{The modified propagator $G_{A,p}(x,y)=G_{R,p}(y,x)$ for fixed $x$ in $\protect \Bone $. Here $q=1-p$.\relax \relax }{figure.caption.30}{}}
\@writefile{toc}{\contentsline {section}{\numberline {5.4}Propagation of plane waves past the singularity}{98}{section.5.4}}
\newlabel{sec:proppastsing}{{5.4}{98}{Propagation of plane waves past the singularity\relax }{section.5.4}{}}
\newlabel{eq:forwardprop}{{5.15}{98}{Propagation of plane waves past the singularity\relax }{equation.5.4.15}{}}
\citation{Copeland:1988tr}
\newlabel{eq:u1u2}{{5.16}{99}{Propagation of plane waves past the singularity\relax }{equation.5.4.16}{}}
\@writefile{toc}{\contentsline {section}{\numberline {5.5}Eigenmodes of the Pauli-Jordan function}{99}{section.5.5}}
\@writefile{lof}{\contentsline {figure}{\numberline {5.7}{\ignorespaces The Pauli-Jordan function $\Delta _p(x,y)$ in the trousers as a function of $y$, with the first argument $x$ fixed (at the dot) in the causal future of the crotch singularity. Here $q=1-p$.\relax }}{100}{figure.caption.31}}
\newlabel{fig:pj-on-pod}{{5.7}{100}{The Pauli-Jordan function $\Delta _p(x,y)$ in the trousers as a function of $y$, with the first argument $x$ fixed (at the dot) in the causal future of the crotch singularity. Here $q=1-p$.\relax \relax }{figure.caption.31}{}}
\@writefile{toc}{\contentsline {subsection}{\numberline {5.5.1}Counting eigenmodes}{100}{subsection.5.5.1}}
\@writefile{lof}{\contentsline {figure}{\numberline {5.8}{\ignorespaces $L^2(M\times M)$-norm of $i\Delta _p(x,y)$ on the pair of diamonds as a function of $p$.\relax }}{101}{figure.caption.32}}
\newlabel{fig:hsnorm-pod}{{5.8}{101}{$L^2(M\times M)$-norm of $i\Delta _p(x,y)$ on the pair of diamonds as a function of $p$.\relax \relax }{figure.caption.32}{}}
\newlabel{eq:hsnormpod}{{5.20}{101}{Counting eigenmodes\relax }{equation.5.5.20}{}}
\@writefile{toc}{\contentsline {subsection}{\numberline {5.5.2}Ordinary plane waves}{101}{subsection.5.5.2}}
\@writefile{toc}{\contentsline {subsection}{\numberline {5.5.3}Restricted plane waves}{102}{subsection.5.5.3}}
\newlabel{eq:iDeltaULDone}{{5.24}{103}{Restricted plane waves\relax }{equation.5.5.24}{}}
\newlabel{eq:iDeltaURDone}{{5.25}{103}{Restricted plane waves\relax }{equation.5.5.25}{}}
\newlabel{eq:iDeltaLRDone}{{5.26}{103}{Restricted plane waves\relax }{equation.5.5.26}{}}
\newlabel{eq:iDeltaLLDone}{{5.27}{104}{Restricted plane waves\relax }{equation.5.5.27}{}}
\@writefile{toc}{\contentsline {subsection}{\numberline {5.5.4}Ordinary plane waves revisited}{104}{subsection.5.5.4}}
\@writefile{toc}{\contentsline {subsection}{\numberline {5.5.5}Restricted constant functions}{104}{subsection.5.5.5}}
\newlabel{sec:constantmodes}{{5.5.5}{104}{Restricted constant functions\relax }{subsection.5.5.5}{}}
\@writefile{toc}{\contentsline {section}{\numberline {5.6}Outlook}{105}{section.5.6}}
\citation{Copeland:1988tr}
\citation{Copeland:1988tr}
\citation{Brum:2013bia}
\citation{fulling1978}
\citation{Fewster:2013lqa}
\@writefile{toc}{\contentsline {chapter}{\numberline {6}For Future Investigation}{107}{chapter.6}}
\@writefile{lof}{\addvspace {10\p@ }}
\@writefile{lot}{\addvspace {10\p@ }}
\newlabel{section:conclusions}{{6}{107}{For Future Investigation\relax }{chapter.6}{}}
\citation{Afshordi:2012jf}
\citation{deBoer:2004nd,Brunetti:2005pr,Collins:2003mj}
\@writefile{toc}{\contentsline {chapter}{\numberline {A}Corrections to the SJ two-point function}{109}{appendix.A}}
\@writefile{lof}{\addvspace {10\p@ }}
\@writefile{lot}{\addvspace {10\p@ }}
\newlabel{app:correctionsepsilon}{{A}{109}{Corrections to the SJ two-point function\relax }{appendix.A}{}}
\newlabel{eq:corr}{{A.1}{109}{Corrections to the SJ two-point function\relax }{equation.A.0.1}{}}
\@writefile{lof}{\contentsline {figure}{\numberline {A.1}{\ignorespaces A plot of $\epsilon (u,v;u',v')$ in the centre (top) and in the corner (bottom) against $-\text  {log}_{10}(V_\mathrm  {sub}/V)$.\relax }}{110}{figure.caption.33}}
\newlabel{fig:epsilon}{{A.1}{110}{A plot of $\epsilon (u,v;u',v')$ in the centre (top) and in the corner (bottom) against $-\text {log}_{10}(V_\mathrm {sub}/V)$.\relax \relax }{figure.caption.33}{}}
\citation{bunch1978quantum}
\citation{Bousso:2001mw}
\@writefile{toc}{\contentsline {chapter}{\numberline {B}Modes in $dS^D$ and $dS^D_P$}{112}{appendix.B}}
\@writefile{lof}{\addvspace {10\p@ }}
\@writefile{lot}{\addvspace {10\p@ }}
\newlabel{app:dSVac}{{B}{112}{Modes in $dS^D$ and $dS^D_P$\relax }{appendix.B}{}}
\@writefile{toc}{\contentsline {section}{\numberline {B.1}Bunch-Davies modes on $dS^D_P$}{112}{section.B.1}}
\newlabel{AppBD}{{B.1}{112}{Bunch-Davies modes on $dS^D_P$\relax }{section.B.1}{}}
\newlabel{eq:poincareKG}{{B.2}{112}{Bunch-Davies modes on $dS^D_P$\relax }{equation.B.1.2}{}}
\@writefile{toc}{\contentsline {subsubsection}{Klein-Gordon modes:}{112}{section*.34}}
\newlabel{bessel}{{B.4}{112}{Klein-Gordon modes:\relax }{equation.B.1.4}{}}
\citation{Olver:2010:NHM:1830479}
\newlabel{nunu}{{B.5}{113}{Klein-Gordon modes:\relax }{equation.B.1.5}{}}
\@writefile{toc}{\contentsline {subsubsection}{Absolute value of the normalisation constant $n_\mathbf  {k}$:}{113}{section*.35}}
\newlabel{KGBD}{{B.6}{113}{Absolute value of the normalisation constant $n_\veck $:\relax }{equation.B.1.6}{}}
\newlabel{temp}{{B.7}{113}{Absolute value of the normalisation constant $n_\veck $:\relax }{equation.B.1.7}{}}
\citation{Olver:2010:NHM:1830479}
\citation{Olver:2010:NHM:1830479}
\citation{Bousso:2001mw}
\@writefile{toc}{\contentsline {subsubsection}{Phase of the normalisation constant $n_\mathbf  {k}$:}{114}{section*.36}}
\newlabel{eq:bdrel}{{B.11}{114}{Phase of the normalisation constant $n_\veck $:\relax }{equation.B.1.11}{}}
\@writefile{toc}{\contentsline {subsubsection}{Summary:}{114}{section*.37}}
\newlabel{eq:poincaremodes}{{B.14}{114}{Summary:\relax }{equation.B.1.14}{}}
\@writefile{toc}{\contentsline {section}{\numberline {B.2}Euclidean modes on $dS^D$}{114}{section.B.2}}
\newlabel{AppEuc}{{B.2}{114}{Euclidean modes on $dS^D$\relax }{section.B.2}{}}
\@writefile{toc}{\contentsline {subsubsection}{Klein-Gordon modes}{115}{section*.38}}
\newlabel{ccylj}{{B.20}{115}{Klein-Gordon modes\relax }{equation.B.2.20}{}}
\@writefile{toc}{\contentsline {subsubsection}{Absolute value of the normalisation constant $n_L$:}{116}{section*.39}}
\newlabel{KGE}{{B.26}{116}{Absolute value of the normalisation constant $n_L$:\relax }{equation.B.2.26}{}}
\newlabel{eucI}{{B.27}{116}{Absolute value of the normalisation constant $n_L$:\relax }{equation.B.2.27}{}}
\newlabel{FinInf}{{B.28}{116}{Absolute value of the normalisation constant $n_L$:\relax }{equation.B.2.28}{}}
\citation{Olver:2010:NHM:1830479}
\citation{Olver:2010:NHM:1830479}
\citation{Olver:2010:NHM:1830479}
\newlabel{eq:globaldscoefficients}{{B.29}{117}{Absolute value of the normalisation constant $n_L$:\relax }{equation.B.2.29}{}}
\citation{Olver:2010:NHM:1830479}
\citation{Olver:2010:NHM:1830479}
\citation{Olver:2010:NHM:1830479}
\@writefile{toc}{\contentsline {subsubsection}{Phase of the normalisation constant $n_L$:}{118}{section*.40}}
\newlabel{eq:allentrickeuclidean}{{B.34}{118}{Phase of the normalisation constant $n_L$:\relax }{equation.B.2.34}{}}
\newlabel{minusCC}{{B.35}{118}{Phase of the normalisation constant $n_L$:\relax }{equation.B.2.35}{}}
\newlabel{ccHyper}{{B.37}{118}{Phase of the normalisation constant $n_L$:\relax }{equation.B.2.37}{}}
\@writefile{toc}{\contentsline {subsubsection}{Summary:}{119}{section*.41}}
\newlabel{eq:globalmodes}{{B.41}{119}{Summary:\relax }{equation.B.2.41}{}}
\bibdata{thesisbib.bib}
\bibcite{Afshordi:2012ez}{1}
\bibcite{aslanbeigibuck}{2}
\bibcite{hawking1975particle}{3}
\bibcite{fulling1973nonuniqueness}{4}
\bibcite{davies1975scalar}{5}
\bibcite{unruh1976notes}{6}
\bibcite{Mukhanov1992203}{7}
\bibcite{Wald:2009uh}{8}
\bibcite{wald2009formulation}{9}
\bibcite{Afshordi:2012jf}{10}
\bibcite{Fewster:2012ew}{11}
\bibcite{Dirac:1933}{12}
\bibcite{Sorkin:2011pn}{13}
\bibcite{Johnston:2009fr}{14}
\bibcite{rafaelprivate}{15}
\bibcite{hawking1975large}{16}
\bibcite{peierls1952commutation}{17}
\bibcite{peierlsproof}{18}
\bibcite{Bombelli:1987aa}{19}
\bibcite{Sorkin:2003bx}{20}
\bibcite{Henson:2006kf}{21}
\bibcite{PSP:2063916}{22}
\bibcite{hawking:newtop}{23}
\bibcite{malament:class}{24}
\bibcite{ilie2006numerical}{25}
\bibcite{Johnston:2010su}{26}
\bibcite{RS}{27}
\bibcite{wald1994quantum}{28}
\bibcite{Fewster}{29}
\bibcite{Coleman:1973ci}{30}
\bibcite{Abdalla:1991vua}{31}
\bibcite{Faber:2002ve}{32}
\bibcite{Rindler:1966zz}{33}
\bibcite{Rindler:2006km}{34}
\bibcite{Fulling:1972md}{35}
\bibcite{Davies:1974th}{36}
\bibcite{Unruh:1976db}{37}
\bibcite{speigel1953summation}{38}
\bibcite{Birrell:1982ix}{39}
\bibcite{Davies:1976hi}{40}
\bibcite{Avilan:2014hra}{41}
\bibcite{schmidt1993sitter}{42}
\bibcite{Spradlin:2001pw}{43}
\bibcite{Mottola:1984ar}{44}
\bibcite{allen1985vacuum}{45}
\bibcite{schomblond1976conditions}{46}
\bibcite{Candelas:1977tt}{47}
\bibcite{Dowker:1975xj}{48}
\bibcite{Einhorn:2002nu}{49}
\bibcite{birrell1984quantum}{50}
\bibcite{Bousso:2001mw}{51}
\bibcite{Tagirov:1972vv}{52}
\bibcite{bunch1978quantum}{53}
\bibcite{Candelas:1976jv}{54}
\bibcite{Lagogiannis:2011st}{55}
\bibcite{Yagdjian:2013}{56}
\bibcite{Olver:2010:NHM:1830479}{57}
\bibcite{bertola1999correspondence}{58}
\bibcite{deBoer:2003vf}{59}
\bibcite{matsumoto1998mersenne}{60}
\bibcite{Schmitzer:2010to}{61}
\bibcite{Gazeau:2007zz}{62}
\bibcite{Fukuma:2013mx}{63}
\bibcite{Marolf:2010zp}{64}
\bibcite{Jatkar:2011ju}{65}
\bibcite{Marolf:2012kh}{66}
\bibcite{Bros:2008sq}{67}
\bibcite{Bros:2006gs}{68}
\bibcite{2000CMaPh.208..623B}{69}
\bibcite{Hollands:2001nf}{70}
\bibcite{Hollands:2001fb}{71}
\bibcite{Brunetti:2005pr}{72}
\bibcite{Brum:2013bia}{73}
\bibcite{Johnston:2008za}{74}
\bibcite{leray1953hyperbolic}{75}
\bibcite{Avis:1977yn}{76}
\bibcite{Geroch:1970uw}{77}
\bibcite{Geroch:1967fs}{78}
\bibcite{Sorkin:1997gi}{79}
\bibcite{thorne1993closed}{80}
\bibcite{Sorkin:1989ea}{81}
\bibcite{Dray:1991zz}{82}
\bibcite{Gibbons:2011dh}{83}
\bibcite{Wheeler1957604}{84}
\bibcite{wheeler1955geons}{85}
\bibcite{Sorkin:1986geons}{86}
\bibcite{Sorkin:1996yt}{87}
\bibcite{Anderson:1986ww}{88}
\bibcite{Copeland:1988tr}{89}
\bibcite{Dowker:1997hj}{90}
\bibcite{Louko:1995jw}{91}
\bibcite{sorkin:stokes}{92}
\bibcite{garcia1998divergence}{93}
\bibcite{fulling1978}{94}
\bibcite{Fewster:2013lqa}{95}
\bibcite{deBoer:2004nd}{96}
\bibcite{Collins:2003mj}{97}
\bibstyle{jhep}
\global\@altsecnumformattrue
