\select@language {british}
\addvspace {10\p@ }
\addvspace {10\p@ }
\addvspace {10\p@ }
\addvspace {10\p@ }
\contentsline {table}{\numberline {4.1}{\ignorespaces The SJ state in the global and Poincar\'e patches of de Sitter space. Depending on the mass $m$ of the field, the SJ state corresponds to different $\alpha $-vacua (the Euclidean, in- and out- vacua are all special cases of $\alpha $-vacua and in odd spacetime dimensions the in- and out-vacua coincide). The critical mass that marks these transitions is $m_*=\frac {d}{2\ell }$, where $d$ is the spatial dimension and $\ell $ is the de Sitter radius. \relax }}{81}{table.caption.23}
\addvspace {10\p@ }
\contentsline {table}{\numberline {5.1}{\ignorespaces Some subregions of the pair of diamonds and their labels. All regions except the last two are defined with respect to $D_1$ --- for these there are analogous regions defined with respect to $D_2$. Note that the upper left and right diagonal regions as well as the left and right leg regions extend over both diamonds (as evident in their symbols). \relax }}{92}{table.caption.27}
\addvspace {10\p@ }
\addvspace {10\p@ }
\addvspace {10\p@ }
