\relax 
\providecommand\HyperFirstAtBeginDocument{\AtBeginDocument}
\HyperFirstAtBeginDocument{\ifx\hyper@anchor\@undefined
\global\let\oldcontentsline\contentsline
\gdef\contentsline#1#2#3#4{\oldcontentsline{#1}{#2}{#3}}
\global\let\oldnewlabel\newlabel
\gdef\newlabel#1#2{\newlabelxx{#1}#2}
\gdef\newlabelxx#1#2#3#4#5#6{\oldnewlabel{#1}{{#2}{#3}}}
\AtEndDocument{\ifx\hyper@anchor\@undefined
\let\contentsline\oldcontentsline
\let\newlabel\oldnewlabel
\fi}
\fi}
\global\let\hyper@last\relax 
\gdef\HyperFirstAtBeginDocument#1{#1}
\providecommand\HyField@AuxAddToFields[1]{}
\select@language{british}
\@writefile{toc}{\select@language{british}}
\@writefile{lof}{\select@language{british}}
\@writefile{lot}{\select@language{british}}
\@writefile{toc}{\contentsline {chapter}{Nomenclature}{10}{chapter*.5}}
\citation{hawking1975particle}
\citation{fulling1973nonuniqueness}
\citation{davies1975scalar}
\citation{unruh1976notes}
\citation{Mukhanov1992203}
\citation{allen1985vacuum}
\citation{wald2009formulation}
\citation{Afshordi:2012jf}
\citation{Fewster:2012ew}
\citation{Fulling:1989nb}
\@writefile{toc}{\contentsline {chapter}{\numberline {1}Introduction}{11}{chapter.1}}
\@writefile{lof}{\addvspace {10\p@ }}
\@writefile{lot}{\addvspace {10\p@ }}
\citation{Wald:2009uh}
\citation{Dirac:1933}
\citation{Sorkin:2011pn}
\citation{Siavash}
\citation{Johnston:2009fr}
\citation{Sorkin:2011pn}
\citation{Afshordi:2012jf}
\citation{rafaelprivate}
\citation{hawking1975large}
\@writefile{toc}{\contentsline {chapter}{\numberline {2}Background}{14}{chapter.2}}
\@writefile{lof}{\addvspace {10\p@ }}
\@writefile{lot}{\addvspace {10\p@ }}
\@writefile{toc}{\contentsline {section}{\numberline {2.1}QFT in curved spacetime}{14}{section.2.1}}
\newlabel{sec:qdtincst}{{2.1}{14}{QFT in curved spacetime\relax }{section.2.1}{}}
\newlabel{eq:KG}{{2.1}{14}{QFT in curved spacetime\relax }{equation.2.1.1}{}}
\newlabel{eq:KGnorm}{{2.2}{14}{QFT in curved spacetime\relax }{equation.2.1.2}{}}
\newlabel{eq:GF}{{2.3}{14}{QFT in curved spacetime\relax }{equation.2.1.3}{}}
\citation{peierls1952commutation}
\citation{peierlsproof}
\@writefile{toc}{\contentsline {subsection}{\numberline {2.1.1}Canonical Quantisation}{15}{subsection.2.1.1}}
\newlabel{eq:equaltimecomm}{{2.4}{15}{Canonical Quantisation\relax }{equation.2.1.4}{}}
\newlabel{eq:KGortho}{{2.5}{15}{Canonical Quantisation\relax }{equation.2.1.5}{}}
\newlabel{eq:modesum}{{2.6}{15}{Canonical Quantisation\relax }{equation.2.1.6}{}}
\newlabel{eq:ladderrels}{{2.7}{15}{Canonical Quantisation\relax }{equation.2.1.7}{}}
\newlabel{eq:commutationrelations}{{2.8}{16}{Canonical Quantisation\relax }{equation.2.1.8}{}}
\newlabel{eq:firstdefofidelta}{{2.9}{16}{Canonical Quantisation\relax }{equation.2.1.9}{}}
\@writefile{toc}{\contentsline {subsection}{\numberline {2.1.2}Non-uniqueness of the quantum state}{16}{subsection.2.1.2}}
\newlabel{eq:bogtransform}{{2.10}{16}{Non-uniqueness of the quantum state\relax }{equation.2.1.10}{}}
\newlabel{eq:posfreqmodes}{{2.13}{17}{Non-uniqueness of the quantum state\relax }{equation.2.1.13}{}}
\@writefile{toc}{\contentsline {subsection}{\numberline {2.1.3}Propagators}{17}{subsection.2.1.3}}
\citation{Johnston:2009fr}
\citation{Bombelli:1987aa}
\newlabel{eq:ideltasum}{{2.17}{18}{Propagators\relax }{equation.2.1.17}{}}
\newlabel{eq:posdefquadform}{{2.18}{18}{Propagators\relax }{equation.2.1.18}{}}
\@writefile{toc}{\contentsline {section}{\numberline {2.2}The discrete SJ state}{18}{section.2.2}}
\citation{Bombelli:1987aa}
\citation{Sorkin:2003bx}
\citation{Henson:2006kf}
\citation{Henson:2006kf}
\@writefile{toc}{\contentsline {subsection}{\numberline {2.2.1}Background on Causal Sets}{19}{subsection.2.2.1}}
\newlabel{eq:causalmatrix}{{2.20}{19}{Background on Causal Sets\relax }{equation.2.2.20}{}}
\citation{PSP:2063916}
\citation{hawking:newtop}
\citation{malament:class}
\citation{ilie2006numerical}
\citation{ilie2006numerical}
\@writefile{lof}{\contentsline {figure}{\numberline {2.1}{\ignorespaces An $N=200$ sprinkling into a causal diamond in two-dimensional Minkowski space.\relax }}{20}{figure.caption.6}}
\providecommand*\caption@xref[2]{\@setref\relax\@undefined{#1}}
\newlabel{fig:sprinkling1}{{2.1}{20}{An $N=200$ sprinkling into a causal diamond in two-dimensional Minkowski space.\relax \relax }{figure.caption.6}{}}
\citation{Johnston:2010su}
\citation{Johnston:2010su}
\citation{Johnston:2009fr}
\@writefile{toc}{\contentsline {subsection}{\numberline {2.2.2}Definition}{21}{subsection.2.2.2}}
\newlabel{eq:causetretarded}{{2.21}{21}{Definition\relax }{equation.2.2.21}{}}
\@writefile{toc}{\contentsline {subsection}{\numberline {2.2.3}Alternative definition}{24}{subsection.2.2.3}}
\newlabel{eq:sjaltcon}{{2.2.3}{24}{Alternative definition\relax }{subsection.2.2.3}{}}
\newlabel{eq:altconditiondiscrete1}{{2.34}{24}{Alternative definition\relax }{equation.2.2.34}{}}
\newlabel{eq:altconditiondiscrete2}{{2.35}{24}{Alternative definition\relax }{equation.2.2.35}{}}
\citation{Johnston:2010su}
\citation{Afshordi:2012jf}
\citation{Fewster:2012ew}
\@writefile{toc}{\contentsline {section}{\numberline {2.3}The continuum SJ state}{25}{section.2.3}}
\@writefile{toc}{\contentsline {subsection}{\numberline {2.3.1}Definition}{25}{subsection.2.3.1}}
\citation{RS}
\citation{RS}
\newlabel{eq:ideltadef}{{2.38}{26}{Definition\relax }{equation.2.3.38}{}}
\newlabel{eq:eigenveceq}{{2.39}{26}{Definition\relax }{equation.2.3.39}{}}
\newlabel{eq:SJorthonormality}{{2.42}{26}{Definition\relax }{equation.2.3.42}{}}
\newlabel{eq:Q}{{2.44}{26}{Definition\relax }{equation.2.3.44}{}}
\newlabel{eq:W}{{2.45}{26}{Definition\relax }{equation.2.3.45}{}}
\citation{Fewster:2012ew}
\citation{Fewster:2012ew}
\@writefile{toc}{\contentsline {subsection}{\numberline {2.3.2}Explicit construction}{28}{subsection.2.3.2}}
\newlabel{sec:sj-explicitconstruction}{{2.3.2}{28}{Explicit construction\relax }{subsection.2.3.2}{}}
\newlabel{eq:sjbogtrans}{{2.51}{29}{Explicit construction\relax }{equation.2.3.51}{}}
\newlabel{eq:alphabetarelations}{{2.53}{29}{Explicit construction\relax }{equation.2.3.53}{}}
\newlabel{eq:QuasiBogTans}{{2.54}{29}{Explicit construction\relax }{equation.2.3.54}{}}
\@writefile{toc}{\contentsline {subsection}{\numberline {2.3.3}Alternative Definition}{30}{subsection.2.3.3}}
\newlabel{sec:contaltdef}{{2.3.3}{30}{Alternative Definition\relax }{subsection.2.3.3}{}}
\citation{wald2009formulation}
\citation{wald1994quantum}
\citation{Fewster}
\@writefile{toc}{\contentsline {subsection}{\numberline {2.3.4}The Hadamard condition}{31}{subsection.2.3.4}}
\citation{Johnston:2009fr}
\@writefile{toc}{\contentsline {chapter}{\numberline {3}The SJ state on the flat causal diamond}{32}{chapter.3}}
\@writefile{lof}{\addvspace {10\p@ }}
\@writefile{lot}{\addvspace {10\p@ }}
\newlabel{chapter:diamond}{{3}{32}{The SJ state on the flat causal diamond\relax }{chapter.3}{}}
\citation{Coleman:1973ci}
\citation{Abdalla:1991vua}
\citation{Faber:2002ve}
\@writefile{toc}{\contentsline {section}{\numberline {3.1}The massless scalar field in two-dimensional flat spacetimes}{33}{section.3.1}}
\newlabel{mink}{{3.1}{33}{The massless scalar field in two-dimensional flat spacetimes\relax }{equation.3.1.1}{}}
\newlabel{KG_mink}{{3.2}{33}{The massless scalar field in two-dimensional flat spacetimes\relax }{equation.3.1.2}{}}
\newlabel{modes}{{3.3}{33}{The massless scalar field in two-dimensional flat spacetimes\relax }{equation.3.1.3}{}}
\citation{Abdalla:1991vua}
\citation{Rindler:1966zz}
\citation{Rindler:2006km}
\newlabel{Wight_Mink_cutoff}{{3.5}{34}{The massless scalar field in two-dimensional flat spacetimes\relax }{equation.3.1.5}{}}
\newlabel{Wight_Mink}{{3.6}{34}{The massless scalar field in two-dimensional flat spacetimes\relax }{equation.3.1.6}{}}
\citation{Fulling:1972md}
\@writefile{lof}{\contentsline {figure}{\numberline {3.1}{\ignorespaces The left and right Rindler wedges of two-dimensional Minkowski spacetime.\relax }}{35}{figure.caption.8}}
\newlabel{wedge}{{3.1}{35}{The left and right Rindler wedges of two-dimensional Minkowski spacetime.\relax \relax }{figure.caption.8}{}}
\newlabel{rindler}{{3.8}{35}{The massless scalar field in two-dimensional flat spacetimes\relax }{equation.3.1.8}{}}
\newlabel{16}{{3.9}{35}{The massless scalar field in two-dimensional flat spacetimes\relax }{equation.3.1.9}{}}
\citation{Fulling:1972md}
\citation{Davies:1974th}
\citation{Unruh:1976db}
\citation{Siavash}
\newlabel{20}{{3.10}{36}{The massless scalar field in two-dimensional flat spacetimes\relax }{equation.3.1.10}{}}
\@writefile{toc}{\contentsline {subsection}{\numberline {3.1.1}The SJ state in Rindler space}{37}{subsection.3.1.1}}
\newlabel{29}{{3.11}{37}{The SJ state in Rindler space\relax }{equation.3.1.11}{}}
\newlabel{30}{{3.12}{37}{The SJ state in Rindler space\relax }{equation.3.1.12}{}}
\newlabel{31}{{3.13}{38}{The SJ state in Rindler space\relax }{equation.3.1.13}{}}
\@writefile{toc}{\contentsline {section}{\numberline {3.2}The massless SJ two-point function in the flat causal diamond}{39}{section.3.2}}
\newlabel{sec:masslessSJdiamond}{{3.2}{39}{The massless SJ two-point function in the flat causal diamond\relax }{section.3.2}{}}
\@writefile{lof}{\contentsline {figure}{\numberline {3.2}{\ignorespaces The causal diamond, $u,v\in (-L,L)$. The shaded portions of the diagram represent the centre $(i)$ and corner $(ii)$ regions of interest in section~\ref  {sec_results}.\relax }}{40}{figure.caption.9}}
\newlabel{fig:diamond}{{3.2}{40}{The causal diamond, $u,v\in (-L,L)$. The shaded portions of the diagram represent the centre $(i)$ and corner $(ii)$ regions of interest in section~\ref {sec_results}.\relax \relax }{figure.caption.9}{}}
\newlabel{eq:36}{{3.18}{40}{The massless SJ two-point function in the flat causal diamond\relax }{equation.3.2.18}{}}
\citation{Johnston:2010su}
\citation{Johnston:2010su}
\citation{Johnston:2010su}
\citation{stone1979linear}
\citation{Johnston:2010su}
\citation{speigel1953summation}
\newlabel{eq:HilbertSchmidmink}{{3.19}{41}{The massless SJ two-point function in the flat causal diamond\relax }{equation.3.2.19}{}}
\newlabel{eq:SJfunctions}{{3.20}{41}{The massless SJ two-point function in the flat causal diamond\relax }{equation.3.2.20}{}}
\newlabel{46}{{3.21}{41}{The massless SJ two-point function in the flat causal diamond\relax }{equation.3.2.21}{}}
\newlabel{47}{{3.22}{41}{The massless SJ two-point function in the flat causal diamond\relax }{equation.3.2.22}{}}
\newlabel{eq:sum1}{{3.23}{41}{The massless SJ two-point function in the flat causal diamond\relax }{equation.3.2.23}{}}
\@writefile{lof}{\contentsline {figure}{\numberline {3.3}{\ignorespaces Plot of $\qopname  \relax o{tan}x$ and $2x$ along with vertical lines at $\frac  {2n-1}{2}\pi $ for $n\in \mathbb  Z$. The values of the summation variable are the positions of the intersections $\qopname  \relax o{tan}x = 2x>0$.\relax }}{42}{figure.caption.10}}
\newlabel{Transcendental plot}{{3.3}{42}{Plot of $\tan x$ and $2x$ along with vertical lines at $\frac {2n-1}{2}\pi $ for $n\in \mathbb Z$. The values of the summation variable are the positions of the intersections $\tan x = 2x>0$.\relax \relax }{figure.caption.10}{}}
\newlabel{eq:firstsum}{{3.24}{42}{The massless SJ two-point function in the flat causal diamond\relax }{equation.3.2.24}{}}
\newlabel{eq:sum2}{{3.25}{42}{The massless SJ two-point function in the flat causal diamond\relax }{equation.3.2.25}{}}
\newlabel{eq:epsdef}{{3.27}{43}{The massless SJ two-point function in the flat causal diamond\relax }{equation.3.2.27}{}}
\newlabel{eq:secondsum}{{3.28}{43}{The massless SJ two-point function in the flat causal diamond\relax }{equation.3.2.28}{}}
\newlabel{eq:SJbox}{{3.29}{43}{The massless SJ two-point function in the flat causal diamond\relax }{equation.3.2.29}{}}
\@writefile{toc}{\contentsline {subsection}{\numberline {3.2.1}The SJ state in the centre and corner}{44}{subsection.3.2.1}}
\newlabel{sec_results}{{3.2.1}{44}{The SJ state in the centre and corner\relax }{subsection.3.2.1}{}}
\newlabel{eq:restrict}{{3.30}{44}{The SJ state in the centre and corner\relax }{equation.3.2.30}{}}
\@writefile{toc}{\contentsline {subsubsection}{The centre}{44}{section*.11}}
\newlabel{eq:SJtpcentrecomplete}{{3.33}{45}{The centre\relax }{equation.3.2.33}{}}
\newlabel{eq:lambda}{{3.34}{45}{The centre\relax }{equation.3.2.34}{}}
\citation{Birrell:1982ix}
\citation{Davies:1976hi}
\@writefile{toc}{\contentsline {subsubsection}{The corner}{46}{section*.12}}
\newlabel{64}{{3.36}{46}{The corner\relax }{equation.3.2.36}{}}
\newlabel{65}{{3.37}{46}{The corner\relax }{equation.3.2.37}{}}
\citation{Johnston:2009fr}
\citation{Johnston:2010su}
\@writefile{toc}{\contentsline {section}{\numberline {3.3}Comparison with the discrete SJ vacuum}{47}{section.3.3}}
\newlabel{sec_cset}{{3.3}{47}{Comparison with the discrete SJ vacuum\relax }{section.3.3}{}}
\@writefile{toc}{\contentsline {subsection}{\numberline {3.3.1}Causal sets and discrete propagators}{48}{subsection.3.3.1}}
\@writefile{toc}{\contentsline {subsection}{\numberline {3.3.2}The SJ vacuum in the centre}{48}{subsection.3.3.2}}
\@writefile{lof}{\contentsline {figure}{\numberline {3.4}{\ignorespaces An $N=2^{11}=2048$ element sprinkling into a diamond $\textsf  {C}_L$ (with $L=2^{\frac  92}$ in natural units). The subregions corresponding to the centre $(i)$ and the corner $(ii)$ are highlighted.\relax }}{49}{figure.caption.13}}
\newlabel{causetsprinkling}{{3.4}{49}{An $N=2^{11}=2048$ element sprinkling into a diamond $\textsf {C}_L$ (with $L=2^{\frac 92}$ in natural units). The subregions corresponding to the centre $(i)$ and the corner $(ii)$ are highlighted.\relax \relax }{figure.caption.13}{}}
\newlabel{eq:sjcentre}{{3.38}{49}{The SJ vacuum in the centre\relax }{equation.3.3.38}{}}
\@writefile{toc}{\contentsline {subsection}{\numberline {3.3.3}The SJ vacuum in the corner and in the full diamond}{49}{subsection.3.3.3}}
\@writefile{lof}{\contentsline {figure}{\numberline {3.5}{\ignorespaces The real parts of the continuum two-point function $W_{\mathsf  M, \lambda }(x,x')$ (black line) with $\lambda =0.02$ and the discrete SJ two-point function $\mathbf  W_{ij}$ (blue scatter) in the centre of the finite diamond $\textsf  {C}_L$ with $L=2^\frac  92$, plotted against the proper time $|d|$ for timelike separated events.\relax }}{50}{figure.caption.14}}
\newlabel{fm}{{3.5}{50}{The real parts of the continuum two-point function $W_{\mathsf M, \lambda }(x,x')$ (black line) with $\lambda =0.02$ and the discrete SJ two-point function $\mathbf W_{ij}$ (blue scatter) in the centre of the finite diamond $\textsf {C}_L$ with $L=2^\frac 92$, plotted against the proper time $|d|$ for timelike separated events.\relax \relax }{figure.caption.14}{}}
\@writefile{lof}{\contentsline {figure}{\numberline {3.6}{\ignorespaces Correlation plots for the two-point functions in the corner of the causal diamond. The horizontal axis represents the causal set two-point function $\mathbf  W_{ij}$. The vertical axes represent (from left to right, top to bottom): the SJ, the Minkowski, the mirror, and the Rindler two-point functions.\relax }}{51}{figure.caption.15}}
\newlabel{fig:corrcorner}{{3.6}{51}{Correlation plots for the two-point functions in the corner of the causal diamond. The horizontal axis represents the causal set two-point function $\mathbf W_{ij}$. The vertical axes represent (from left to right, top to bottom): the SJ, the Minkowski, the mirror, and the Rindler two-point functions.\relax \relax }{figure.caption.15}{}}
\@writefile{lof}{\contentsline {figure}{\numberline {3.7}{\ignorespaces Correlation plots for the two-point functions in the full causal diamond. The horizontal axis represents the causal set two-point function $\mathbf  W_{ij}$. The vertical axes represent (from left to right, top to bottom): the SJ, the Minkowski, the left mirror, the box (two mirrors) and the Rindler two-point functions.\relax }}{52}{figure.caption.16}}
\newlabel{fig:corrfull}{{3.7}{52}{Correlation plots for the two-point functions in the full causal diamond. The horizontal axis represents the causal set two-point function $\mathbf W_{ij}$. The vertical axes represent (from left to right, top to bottom): the SJ, the Minkowski, the left mirror, the box (two mirrors) and the Rindler two-point functions.\relax \relax }{figure.caption.16}{}}
\@writefile{toc}{\contentsline {section}{\numberline {3.4}Corrections to the SJ two-point function}{52}{section.3.4}}
\newlabel{sec:correctionsepsilon}{{3.4}{52}{Corrections to the SJ two-point function\relax }{section.3.4}{}}
\newlabel{eq:corr}{{3.39}{53}{Corrections to the SJ two-point function\relax }{equation.3.4.39}{}}
\@writefile{lof}{\contentsline {figure}{\numberline {3.8}{\ignorespaces A plot of $\epsilon (u,v;u',v')$ in the centre (top) and in the corner (bottom) against $-\text  {log}_{10}(V_\mathrm  {sub}/V)$.\relax }}{54}{figure.caption.17}}
\newlabel{fig:epsilon}{{3.8}{54}{A plot of $\epsilon (u,v;u',v')$ in the centre (top) and in the corner (bottom) against $-\text {log}_{10}(V_\mathrm {sub}/V)$.\relax \relax }{figure.caption.17}{}}
\@writefile{toc}{\contentsline {section}{\numberline {3.5}Conclusions}{55}{section.3.5}}
\newlabel{sec_conclude}{{3.5}{55}{Conclusions\relax }{section.3.5}{}}
\citation{Afshordi:2012jf}
\citation{Afshordi:2012ez}
\citation{Afshordi:2012jf}
\citation{Fewster:2012ew}
\citation{schmidt1993sitter}
\@writefile{toc}{\contentsline {chapter}{\numberline {4}The SJ state in de Sitter space}{57}{chapter.4}}
\@writefile{lof}{\addvspace {10\p@ }}
\@writefile{lot}{\addvspace {10\p@ }}
\newlabel{chapter:desitter}{{4}{57}{The SJ state in de Sitter space\relax }{chapter.4}{}}
\@writefile{toc}{\contentsline {section}{\numberline {4.1}Geometry of de Sitter Space}{57}{section.4.1}}
\newlabel{dSgeom}{{4.1}{57}{Geometry of de Sitter Space\relax }{section.4.1}{}}
\newlabel{eq:desitter}{{4.1}{58}{Geometry of de Sitter Space\relax }{equation.4.1.1}{}}
\newlabel{ZZ}{{4.2}{58}{Geometry of de Sitter Space\relax }{equation.4.1.2}{}}
\citation{Spradlin:2001pw}
\@writefile{lof}{\contentsline {figure}{\numberline {4.1}{\ignorespaces The Penrose diagram of de Sitter space. The shaded area represents the (expanding) Poincar\'e patch. Dotted lines are surfaces of constant $t$ ($d-$spheres), dashed lines are surfaces of constant $\eta $ ($d-$planes). \relax }}{59}{figure.caption.18}}
\newlabel{fig:desitterpenrose}{{4.1}{59}{The Penrose diagram of de Sitter space. The shaded area represents the (expanding) Poincar\'e patch. Dotted lines are surfaces of constant $t$ ($d-$spheres), dashed lines are surfaces of constant $\eta $ ($d-$planes). \relax \relax }{figure.caption.18}{}}
\@writefile{toc}{\contentsline {subsection}{\numberline {4.1.1}The global patch of de Sitter space $dS^D$}{60}{subsection.4.1.1}}
\newlabel{GlobalCoord}{{4.1.1}{60}{The global patch of de Sitter space $dS^D$\relax }{subsection.4.1.1}{}}
\newlabel{eq:globalMetric}{{4.7}{60}{The global patch of de Sitter space $dS^D$\relax }{equation.4.1.7}{}}
\@writefile{toc}{\contentsline {subsection}{\numberline {4.1.2}The Poincar\'e patch of de Sitter space $dS^D_P$}{60}{subsection.4.1.2}}
\newlabel{CosmoCoord}{{4.1.2}{60}{The Poincar\'e patch of de Sitter space $dS^D_P$\relax }{subsection.4.1.2}{}}
\newlabel{eq:poincareCoord}{{4.8}{60}{The Poincar\'e patch of de Sitter space $dS^D_P$\relax }{equation.4.1.8}{}}
\citation{Mottola:1984ar}
\citation{allen1985vacuum}
\citation{schomblond1976conditions}
\citation{Candelas:1977tt}
\citation{Dowker:1975xj}
\citation{Einhorn:2002nu}
\citation{birrell1984quantum}
\citation{Bousso:2001mw}
\citation{Tagirov:1972vv}
\citation{bunch1978quantum}
\newlabel{eq:poincareMetric}{{4.9}{61}{The Poincar\'e patch of de Sitter space $dS^D_P$\relax }{equation.4.1.9}{}}
\@writefile{toc}{\contentsline {section}{\numberline {4.2}Vacuum states in de Sitter space}{61}{section.4.2}}
\newlabel{MAstates}{{4.2}{61}{Vacuum states in de Sitter space\relax }{section.4.2}{}}
\citation{Tagirov:1972vv}
\citation{Bros:2006gs}
\@writefile{toc}{\contentsline {subsection}{\numberline {4.2.1}BD modes}{62}{subsection.4.2.1}}
\newlabel{eq:poincaremodes2}{{4.10}{62}{BD modes\relax }{equation.4.2.10}{}}
\@writefile{toc}{\contentsline {subsection}{\numberline {4.2.2}Euclidean modes}{62}{subsection.4.2.2}}
\citation{bunch1978quantum}
\citation{Tagirov:1972vv}
\citation{Tagirov:1972vv}
\citation{Candelas:1976jv}
\citation{allen1985vacuum}
\citation{allen1985vacuum}
\citation{allen1985vacuum}
\@writefile{toc}{\contentsline {subsection}{\numberline {4.2.3}Two-point functions and $\alpha $-vacua}{63}{subsection.4.2.3}}
\newlabel{eq:euclideantwopointfunction}{{4.16}{63}{Two-point functions and $\alpha $-vacua\relax }{equation.4.2.16}{}}
\newlabel{eq:mamodesP}{{4.17}{63}{Two-point functions and $\alpha $-vacua\relax }{equation.4.2.17}{}}
\newlabel{eq:mamodes}{{4.18}{63}{Two-point functions and $\alpha $-vacua\relax }{equation.4.2.18}{}}
\citation{allen1985vacuum}
\citation{Mottola:1984ar}
\citation{Bousso:2001mw}
\citation{Mottola:1984ar}
\citation{Bousso:2001mw}
\newlabel{eq:MApropagator}{{4.19}{64}{Two-point functions and $\alpha $-vacua\relax }{equation.4.2.19}{}}
\citation{Bousso:2001mw}
\citation{Bousso:2001mw}
\citation{Lagogiannis:2011st}
\citation{Afshordi:2012jf}
\@writefile{toc}{\contentsline {section}{\numberline {4.3}The SJ vacuum on de Sitter space}{65}{section.4.3}}
\@writefile{toc}{\contentsline {subsection}{\numberline {4.3.1}The SJ vacuum on the Poincar\'e patch}{66}{subsection.4.3.1}}
\newlabel{sec:poincare}{{4.3.1}{66}{The SJ vacuum on the Poincar\'e patch\relax }{subsection.4.3.1}{}}
\citation{Olver:2010:NHM:1830479}
\newlabel{eq:BogGeneral}{{4.25}{67}{The SJ vacuum on the Poincar\'e patch\relax }{equation.4.3.25}{}}
\newlabel{eq:poincareratio}{{4.26}{67}{The SJ vacuum on the Poincar\'e patch\relax }{equation.4.3.26}{}}
\newlabel{eq:poincareratio2}{{4.30}{67}{The SJ vacuum on the Poincar\'e patch\relax }{equation.4.3.30}{}}
\newlabel{eq:hank}{{4.31}{67}{The SJ vacuum on the Poincar\'e patch\relax }{equation.4.3.31}{}}
\citation{Olver:2010:NHM:1830479}
\citation{Olver:2010:NHM:1830479}
\newlabel{eq:hank}{{4.32}{68}{The SJ vacuum on the Poincar\'e patch\relax }{equation.4.3.32}{}}
\newlabel{eq:secondlimpoinc}{{4.35}{68}{The SJ vacuum on the Poincar\'e patch\relax }{equation.4.3.35}{}}
\newlabel{gamma}{{4.36}{68}{The SJ vacuum on the Poincar\'e patch\relax }{equation.4.3.36}{}}
\@writefile{toc}{\contentsline {subsection}{\numberline {4.3.2}The SJ vacuum on the global patch}{69}{subsection.4.3.2}}
\newlabel{eq:BogGeneral2}{{4.45}{70}{The SJ vacuum on the global patch\relax }{equation.4.3.45}{}}
\newlabel{eq:globalratio}{{4.46}{70}{The SJ vacuum on the global patch\relax }{equation.4.3.46}{}}
\citation{Bousso:2001mw}
\citation{Lagogiannis:2011st}
\newlabel{eq:globalcoeffs}{{4.56}{72}{The SJ vacuum on the global patch\relax }{equation.4.3.56}{}}
\newlabel{eq:mavaceven}{{4.60}{72}{The SJ vacuum on the global patch\relax }{equation.4.3.60}{}}
\newlabel{eq:mavacodd}{{4.61}{72}{The SJ vacuum on the global patch\relax }{equation.4.3.61}{}}
\@writefile{toc}{\contentsline {section}{\numberline {4.4}The discrete SJ state on a sprinkling into $dS^2$}{73}{section.4.4}}
\@writefile{toc}{\contentsline {subsection}{\numberline {4.4.1}Sprinkling into a causal diamond in $dS^2$}{73}{subsection.4.4.1}}
\citation{matsumoto1998mersenne}
\@writefile{lof}{\contentsline {figure}{\numberline {4.2}{\ignorespaces  The Sorkin-Johnston (SJ) vacuum in the global patch of $3+1$ dimensional de Sitter space. The SJ modefunctions $u^{SJ}_{Lj}$ are related to those of the Euclidean vacuum $u^{E}_{Lj}$ by the Bogoliubov transformation $u^{SJ}_{Lj}=\qopname  \relax o{cosh}(\alpha )u^{E}_{Lj}+\qopname  \relax o{sinh}(\alpha )e^{i\beta }\overline  {u}^{E}_{Lj}$, the second coefficient of which is plotted here. Depending on the product $m\ell $, where $m$ is the mass of the field and $\ell $ is the de Sitter radius, the SJ vacuum corresponds to different $\alpha $-vacua. For $m\ell \ge 3/2$ and $m\ell =\sqrt  {5/4}$, it coincides with the Euclidean vacuum. The prescription fails for $m\ell =\sqrt  {2}$. \relax }}{74}{figure.caption.19}}
\newlabel{fig:betaplot}{{4.2}{74}{The Sorkin-Johnston (SJ) vacuum in the global patch of $3+1$ dimensional de Sitter space. The SJ modefunctions $u^{SJ}_{Lj}$ are related to those of the Euclidean vacuum $u^{E}_{Lj}$ by the Bogoliubov transformation $u^{SJ}_{Lj}=\cosh (\alpha )u^{E}_{Lj}+\sinh (\alpha )e^{i\beta }\overline {u}^{E}_{Lj}$, the second coefficient of which is plotted here. Depending on the product $m\ell $, where $m$ is the mass of the field and $\ell $ is the de Sitter radius, the SJ vacuum corresponds to different $\alpha $-vacua. For $m\ell \ge 3/2$ and $m\ell =\sqrt {5/4}$, it coincides with the Euclidean vacuum. The prescription fails for $m\ell =\sqrt {2}$. \relax \relax }{figure.caption.19}{}}
\citation{Schmitzer:2010to}
\citation{Afshordi:2012ez}
\newlabel{eq:conditiononf}{{4.64}{75}{Sprinkling into a causal diamond in $dS^2$\relax }{equation.4.4.64}{}}
\@writefile{toc}{\contentsline {subsection}{\numberline {4.4.2}Simulation results}{75}{subsection.4.4.2}}
\@writefile{lof}{\contentsline {figure}{\numberline {4.3}{\ignorespaces An $N=1010$ element sprinkling with density $\rho =76\ell ^{-2}$ into a causal diamond of length $\tau =8\ell $ in two-dimensional de Sitter space, visualised in the embedding three-dimensional Minkowski space (see Appendix~\ref  {dSgeom}). The de Sitter radius has been set to $\ell =1$. \relax }}{76}{figure.caption.20}}
\newlabel{fig:desittersprinkling}{{4.3}{76}{An $N=1010$ element sprinkling with density $\rho =76\ell ^{-2}$ into a causal diamond of length $\tau =8\ell $ in two-dimensional de Sitter space, visualised in the embedding three-dimensional Minkowski space (see Appendix~\ref {dSgeom}). The de Sitter radius has been set to $\ell =1$. \relax \relax }{figure.caption.20}{}}
\newlabel{fig:retprop}{{4.4}{77}{\relax }{figure.caption.21}{}}
\citation{Gazeau:2007zz}
\@writefile{lof}{\contentsline {figure}{\numberline {4.5}{\ignorespaces  The Hadamard function $\mathbf  H_{SJ}$ on a causal set obtained through an $N=1010$ sprinkling of a causal diamond of length $\tau =8\ell $ in $1+1$ dimensional de Sitter space. The mass of the field is taken to be $m=2.36\ell ^{-1}$, and the de Sitter radius $\ell $ is set to unity. The geodesic distance $|d|$ between the two arguments of the function is plotted on the horizontal axis for timelike (above) and spacelike (below) separated points. The error bars show the standard deviation about the mean of $\mathbf  H_{SJ}$ for binned values of $|d|$. $H_{\alpha ,\beta }(x,y)$ refers to the Hadamard function of the $\alpha $-vacua (see Appendix \ref  {MAstates}). The function $H_{0.1,0}$ has been omitted in (a), since it is indistinguishable from the Euclidean function $H_E$. \relax }}{78}{figure.caption.22}}
\newlabel{fig:causetplot}{{4.5}{78}{The Hadamard function $\mathbf H_{SJ}$ on a causal set obtained through an $N=1010$ sprinkling of a causal diamond of length $\tau =8\ell $ in $1+1$ dimensional de Sitter space. The mass of the field is taken to be $m=2.36\ell ^{-1}$, and the de Sitter radius $\ell $ is set to unity. The geodesic distance $|d|$ between the two arguments of the function is plotted on the horizontal axis for timelike (above) and spacelike (below) separated points. The error bars show the standard deviation about the mean of $\mathbf H_{SJ}$ for binned values of $|d|$. $H_{\alpha ,\beta }(x,y)$ refers to the Hadamard function of the $\alpha $-vacua (see Appendix \ref {MAstates}). The function $H_{0.1,0}$ has been omitted in (a), since it is indistinguishable from the Euclidean function $H_E$. \relax \relax }{figure.caption.22}{}}
\citation{Fukuma:2013mx}
\citation{Marolf:2010zp}
\citation{Jatkar:2011ju}
\citation{Marolf:2012kh}
\citation{Bros:2008sq}
\citation{Bros:2006gs}
\@writefile{lot}{\contentsline {table}{\numberline {4.1}{\ignorespaces The Sorkin-Johnston vacuum in the global and Poincar\'e patches of de Sitter space. Depending on the mass $m$ of the field, the SJ vacuum corresponds to different $\alpha $-vacua (the Euclidean, in- and out- vacua are all special cases of $\alpha $-vacua and in odd spacetime dimensions the in- and out-vacua coincide). The critical mass that marks these transitions is $m_*=\frac  {D-1}{2\ell }$, where $D$ is the spacetime dimension and $\ell $ is the de Sitter radius. \relax }}{79}{table.caption.23}}
\newlabel{tab:SJstates}{{4.1}{79}{The Sorkin-Johnston vacuum in the global and Poincar\'e patches of de Sitter space. Depending on the mass $m$ of the field, the SJ vacuum corresponds to different $\alpha $-vacua (the Euclidean, in- and out- vacua are all special cases of $\alpha $-vacua and in odd spacetime dimensions the in- and out-vacua coincide). The critical mass that marks these transitions is $m_*=\frac {D-1}{2\ell }$, where $D$ is the spacetime dimension and $\ell $ is the de Sitter radius. \relax \relax }{table.caption.23}{}}
\@writefile{toc}{\contentsline {section}{\numberline {4.5}Conclusions}{79}{section.4.5}}
\citation{Fewster:2012ew}
\citation{allen1985vacuum}
\citation{2000CMaPh.208..623B}
\citation{Hollands:2001nf}
\citation{Hollands:2001fb}
\citation{Brunetti:2005pr}
\citation{Afshordi:2012ez}
\citation{Brum:2013bia}
\citation{Johnston:2008za}
\citation{planck}
\citation{leray1953hyperbolic}
\citation{hawking1975large}
\citation{Avis:1977yn}
\citation{Geroch:1970uw}
\citation{Geroch:1967fs}
\citation{Sorkin:1997gi}
\citation{thorne1993closed}
\citation{Sorkin:1989ea}
\citation{Dray:1991zz}
\citation{Gibbons:2011dh}
\citation{Wheeler1957604}
\@writefile{toc}{\contentsline {chapter}{\numberline {5}Remarks on the SJ state in the Trousers Spacetime}{82}{chapter.5}}
\@writefile{lof}{\addvspace {10\p@ }}
\@writefile{lot}{\addvspace {10\p@ }}
\citation{wheeler1955geons}
\citation{Sorkin:1986geons}
\citation{Sorkin:1996yt}
\citation{Sorkin:1989ea}
\citation{Anderson:1986ww}
\citation{Copeland:1988tr}
\citation{Louko:1995jw}
\@writefile{lof}{\contentsline {figure}{\numberline {5.1}{\ignorespaces The ``trousers'' topology change $S^1\leftrightarrow S^1\times S^1$.\relax }}{84}{figure.caption.24}}
\newlabel{fig:trousers-3d}{{5.1}{84}{The ``trousers'' topology change $S^1\leftrightarrow S^1\times S^1$.\relax \relax }{figure.caption.24}{}}
\@writefile{lof}{\contentsline {figure}{\numberline {5.2}{\ignorespaces The trousers spacetime (left) and a two-dimensional representation obtained by cutting and unwrapping.\relax }}{85}{figure.caption.25}}
\newlabel{fig:trousers-flattened-raw}{{5.2}{85}{The trousers spacetime (left) and a two-dimensional representation obtained by cutting and unwrapping.\relax \relax }{figure.caption.25}{}}
\@writefile{toc}{\contentsline {section}{\numberline {5.1}Quantum Fields in the Trousers}{86}{section.5.1}}
\@writefile{lof}{\contentsline {figure}{\numberline {5.3}{\ignorespaces The pair of diamonds.\relax }}{87}{figure.caption.27}}
\newlabel{fig:pairofdiamonds}{{5.3}{87}{The pair of diamonds.\relax \relax }{figure.caption.27}{}}
\@writefile{toc}{\contentsline {section}{\numberline {5.2}The pair of diamonds}{87}{section.5.2}}
\@writefile{lot}{\contentsline {table}{\numberline {5.1}{\ignorespaces  Some subregions of the pair of diamonds and their labels. All regions except the last two are defined with respect to $D_1$ --- for these there are analogous regions defined with respect to $D_2$. Note that the upper left and right diagonal regions as well as the left and right leg regions extend over both diamonds (as evident in their symbols). \relax }}{89}{table.caption.28}}
\newlabel{tab:pod-regions}{{5.1}{89}{Some subregions of the pair of diamonds and their labels. All regions except the last two are defined with respect to $D_1$ --- for these there are analogous regions defined with respect to $D_2$. Note that the upper left and right diagonal regions as well as the left and right leg regions extend over both diamonds (as evident in their symbols). \relax \relax }{table.caption.28}{}}
\@writefile{toc}{\contentsline {section}{\numberline {5.3}Propagators in the trousers}{90}{section.5.3}}
\@writefile{toc}{\contentsline {subsection}{\numberline {5.3.1}Integral form of Green's equation}{90}{subsection.5.3.1}}
\@writefile{lof}{\contentsline {figure}{\numberline {5.4}{\ignorespaces A naive ansatz for the retarded propagator $G_R(x,y)=-\frac  12\chi (x\succ y)$ in the trousers, drawn as a function of $y$ for fixed $x\in J^+(c)$ represented by the black dot. The function is equal to $-\frac  12$ in the shaded region and zero everywhere else. The dashed contour corresponds to the boundary of a causal diamond centred on the singularity.\relax }}{91}{figure.caption.29}}
\newlabel{fig:gret-on-pod-false}{{5.4}{91}{A naive ansatz for the retarded propagator $G_R(x,y)=-\frac 12\chi (x\succ y)$ in the trousers, drawn as a function of $y$ for fixed $x\in J^+(c)$ represented by the black dot. The function is equal to $-\frac 12$ in the shaded region and zero everywhere else. The dashed contour corresponds to the boundary of a causal diamond centred on the singularity.\relax \relax }{figure.caption.29}{}}
\newlabel{eq:alternativegreen}{{5.5}{91}{Integral form of Green's equation\relax }{equation.5.3.5}{}}
\newlabel{eq:contour-op}{{5.6}{92}{Integral form of Green's equation\relax }{equation.5.3.6}{}}
\@writefile{toc}{\contentsline {subsection}{\numberline {5.3.2}The field equations near the singularity}{92}{subsection.5.3.2}}
\newlabel{eq:alternativegreen2}{{5.7}{92}{The field equations near the singularity\relax }{equation.5.3.7}{}}
\newlabel{eq:twoeoms}{{5.8}{93}{The field equations near the singularity\relax }{equation.5.3.8}{}}
\@writefile{toc}{\contentsline {subsection}{\numberline {5.3.3}A one-parameter family of propagators}{93}{subsection.5.3.3}}
\newlabel{eq:newdefofprop}{{5.10}{93}{A one-parameter family of propagators\relax }{equation.5.3.10}{}}
\@writefile{lof}{\contentsline {figure}{\numberline {5.5}{\ignorespaces The modified retarded propagator $G_R(x,y)$ for fixed $x$ in $\TRone $. In order for the integral version of Green's equation to vanish for a small contour around the singularity we need $b_1+b_2=1$.\relax }}{94}{figure.caption.30}}
\newlabel{fig:gret-on-pod-bs}{{5.5}{94}{The modified retarded propagator $G_R(x,y)$ for fixed $x$ in $\protect \TRone $. In order for the integral version of Green's equation to vanish for a small contour around the singularity we need $b_1+b_2=1$.\relax \relax }{figure.caption.30}{}}
\newlabel{eq:podpropcond1}{{5.11}{94}{A one-parameter family of propagators\relax }{equation.5.3.11}{}}
\@writefile{lof}{\contentsline {figure}{\numberline {5.6}{\ignorespaces The Pauli-Jordan function in the trousers. Depicted here is $\Delta _p(x,y)$ as a function of $y$, with the first argument $x$ fixed (at the dot) in the causal future of the crotch singularity. Here $q=1-p$.\relax }}{95}{figure.caption.31}}
\newlabel{fig:pj-on-pod}{{5.6}{95}{The Pauli-Jordan function in the trousers. Depicted here is $\Delta _p(x,y)$ as a function of $y$, with the first argument $x$ fixed (at the dot) in the causal future of the crotch singularity. Here $q=1-p$.\relax \relax }{figure.caption.31}{}}
\newlabel{eq:gret-on-pod-bs}{{5.14}{95}{A one-parameter family of propagators\relax }{equation.5.3.14}{}}
\@writefile{toc}{\contentsline {section}{\numberline {5.4}Propagation of plane waves past the singularity}{96}{section.5.4}}
\newlabel{eq:forwardprop}{{5.15}{96}{Propagation of plane waves past the singularity\relax }{equation.5.4.15}{}}
\@writefile{toc}{\contentsline {section}{\numberline {5.5}The Pauli-Jordan function and its eigenmodes}{97}{section.5.5}}
\@writefile{toc}{\contentsline {subsection}{\numberline {5.5.1}Counting eigenmodes}{97}{subsection.5.5.1}}
\newlabel{eq:hsnormpod}{{5.20}{97}{Counting eigenmodes\relax }{equation.5.5.20}{}}
\@writefile{lof}{\contentsline {figure}{\numberline {5.7}{\ignorespaces Hilbert-Schmidt norm on the pair of diamonds as a function of $p$.\relax }}{98}{figure.caption.32}}
\newlabel{fig:hsnorm-pod}{{5.7}{98}{Hilbert-Schmidt norm on the pair of diamonds as a function of $p$.\relax \relax }{figure.caption.32}{}}
\@writefile{toc}{\contentsline {subsection}{\numberline {5.5.2}Ordinary plane waves}{98}{subsection.5.5.2}}
\@writefile{toc}{\contentsline {subsection}{\numberline {5.5.3}Restricted plane waves}{99}{subsection.5.5.3}}
\newlabel{eq:iDeltaULDone}{{5.24}{99}{Restricted plane waves\relax }{equation.5.5.24}{}}
\newlabel{eq:iDeltaURDone}{{5.25}{100}{Restricted plane waves\relax }{equation.5.5.25}{}}
\newlabel{eq:iDeltaLRDone}{{5.26}{100}{Restricted plane waves\relax }{equation.5.5.26}{}}
\newlabel{eq:iDeltaLLDone}{{5.27}{100}{Restricted plane waves\relax }{equation.5.5.27}{}}
\@writefile{toc}{\contentsline {subsection}{\numberline {5.5.4}Ordinary plane waves revisited}{101}{subsection.5.5.4}}
\@writefile{toc}{\contentsline {subsection}{\numberline {5.5.5}Restricted constant functions}{101}{subsection.5.5.5}}
\@writefile{toc}{\contentsline {chapter}{\numberline {A}BD Modes in $dS^D$ and $dS^D_P$}{103}{appendix.A}}
\@writefile{lof}{\addvspace {10\p@ }}
\@writefile{lot}{\addvspace {10\p@ }}
\newlabel{app:dSVac}{{A}{103}{BD Modes in $dS^D$ and $dS^D_P$\relax }{appendix.A}{}}
\@writefile{toc}{\contentsline {section}{\numberline {A.1}Bunch-Davies modes on $dS^D_P$}{103}{section.A.1}}
\newlabel{AppBD}{{A.1}{103}{Bunch-Davies modes on $dS^D_P$\relax }{section.A.1}{}}
\newlabel{eq:poincareKG}{{A.2}{103}{Bunch-Davies modes on $dS^D_P$\relax }{equation.A.1.2}{}}
\@writefile{toc}{\contentsline {subsubsection}{Klein-Gordon modes:}{103}{section*.33}}
\newlabel{bessel}{{A.4}{103}{Klein-Gordon modes:\relax }{equation.A.1.4}{}}
\newlabel{nunu}{{A.5}{103}{Klein-Gordon modes:\relax }{equation.A.1.5}{}}
\citation{Olver:2010:NHM:1830479}
\@writefile{toc}{\contentsline {subsubsection}{Absolute value of the normalisation constant $n_\mathbf  {k}$:}{104}{section*.34}}
\newlabel{KGBD}{{A.6}{104}{Absolute value of the normalisation constant $n_\veck $:\relax }{equation.A.1.6}{}}
\newlabel{temp}{{A.7}{104}{Absolute value of the normalisation constant $n_\veck $:\relax }{equation.A.1.7}{}}
\@writefile{toc}{\contentsline {subsubsection}{Phase of the normalisation constant $n_\mathbf  {k}$:}{104}{section*.35}}
\citation{Olver:2010:NHM:1830479}
\citation{Olver:2010:NHM:1830479}
\citation{Bousso:2001mw}
\newlabel{eq:bdrel}{{A.11}{105}{Phase of the normalisation constant $n_\veck $:\relax }{equation.A.1.11}{}}
\@writefile{toc}{\contentsline {subsubsection}{Summary:}{105}{section*.36}}
\newlabel{eq:poincaremodes}{{A.14}{105}{Summary:\relax }{equation.A.1.14}{}}
\@writefile{toc}{\contentsline {section}{\numberline {A.2}Euclidean modes on $dS^D$}{105}{section.A.2}}
\newlabel{AppEuc}{{A.2}{105}{Euclidean modes on $dS^D$\relax }{section.A.2}{}}
\@writefile{toc}{\contentsline {subsubsection}{Klein-Gordon modes}{106}{section*.37}}
\newlabel{ccylj}{{A.20}{106}{Klein-Gordon modes\relax }{equation.A.2.20}{}}
\citation{Olver:2010:NHM:1830479}
\@writefile{toc}{\contentsline {subsubsection}{Absolute value of the normalisation constant $n_L$:}{107}{section*.38}}
\newlabel{KGE}{{A.26}{107}{Absolute value of the normalisation constant $n_L$:\relax }{equation.A.2.26}{}}
\newlabel{eucI}{{A.27}{107}{Absolute value of the normalisation constant $n_L$:\relax }{equation.A.2.27}{}}
\newlabel{FinInf}{{A.28}{107}{Absolute value of the normalisation constant $n_L$:\relax }{equation.A.2.28}{}}
\newlabel{eq:globaldscoefficients}{{A.29}{107}{Absolute value of the normalisation constant $n_L$:\relax }{equation.A.2.29}{}}
\citation{Olver:2010:NHM:1830479}
\citation{Olver:2010:NHM:1830479}
\citation{Olver:2010:NHM:1830479}
\citation{Olver:2010:NHM:1830479}
\citation{Olver:2010:NHM:1830479}
\@writefile{toc}{\contentsline {subsubsection}{Phase of the normalisation constant $n_L$:}{109}{section*.39}}
\newlabel{eq:allentrickeuclidean}{{A.34}{109}{Phase of the normalisation constant $n_L$:\relax }{equation.A.2.34}{}}
\newlabel{minusCC}{{A.35}{109}{Phase of the normalisation constant $n_L$:\relax }{equation.A.2.35}{}}
\newlabel{ccHyper}{{A.37}{109}{Phase of the normalisation constant $n_L$:\relax }{equation.A.2.37}{}}
\@writefile{toc}{\contentsline {subsubsection}{Summary:}{109}{section*.40}}
\newlabel{eq:globalmodes}{{A.41}{110}{Summary:\relax }{equation.A.2.41}{}}
\@writefile{toc}{\contentsline {chapter}{\numberline {B}The spacetime version of Stokes' theorem and forward propagation with Green functions}{111}{appendix.B}}
\@writefile{lof}{\addvspace {10\p@ }}
\@writefile{lot}{\addvspace {10\p@ }}
\newlabel{app:stokes}{{B}{111}{The spacetime version of Stokes' theorem and forward propagation with Green functions\relax }{appendix.B}{}}
\newlabel{eq:stokesgeneral}{{B.1}{111}{The spacetime version of Stokes' theorem and forward propagation with Green functions\relax }{equation.B.0.1}{}}
\newlabel{eq:forwardprop}{{B.7}{112}{The spacetime version of Stokes' theorem and forward propagation with Green functions\relax }{equation.B.0.7}{}}
\bibdata{thesisbib}
\bibcite{hawking1975particle}{1}
\bibcite{fulling1973nonuniqueness}{2}
\bibcite{davies1975scalar}{3}
\bibcite{unruh1976notes}{4}
\bibcite{Mukhanov1992203}{5}
\bibcite{allen1985vacuum}{6}
\bibcite{wald2009formulation}{7}
\bibcite{Afshordi:2012jf}{8}
\bibcite{Fewster:2012ew}{9}
\bibcite{Fulling:1989nb}{10}
\bibcite{Wald:2009uh}{11}
\bibcite{Dirac:1933}{12}
\bibcite{Sorkin:2011pn}{13}
\bibcite{Siavash}{14}
\bibcite{Johnston:2009fr}{15}
\bibcite{rafaelprivate}{16}
\bibcite{hawking1975large}{17}
\bibcite{peierls1952commutation}{18}
\bibcite{peierlsproof}{19}
\bibcite{Bombelli:1987aa}{20}
\bibcite{Sorkin:2003bx}{21}
\bibcite{Henson:2006kf}{22}
\bibcite{PSP:2063916}{23}
\bibcite{hawking:newtop}{24}
\bibcite{malament:class}{25}
\bibcite{ilie2006numerical}{26}
\bibcite{Johnston:2010su}{27}
\bibcite{RS}{28}
\bibcite{wald1994quantum}{29}
\bibcite{Fewster}{30}
\bibcite{Coleman:1973ci}{31}
\bibcite{Abdalla:1991vua}{32}
\bibcite{Faber:2002ve}{33}
\bibcite{Rindler:1966zz}{34}
\bibcite{Rindler:2006km}{35}
\bibcite{Fulling:1972md}{36}
\bibcite{Davies:1974th}{37}
\bibcite{Unruh:1976db}{38}
\bibcite{stone1979linear}{39}
\bibcite{speigel1953summation}{40}
\bibcite{Birrell:1982ix}{41}
\bibcite{Davies:1976hi}{42}
\bibcite{Afshordi:2012ez}{43}
\bibcite{schmidt1993sitter}{44}
\bibcite{Spradlin:2001pw}{45}
\bibcite{Tagirov:1972vv}{46}
\bibcite{bunch1978quantum}{47}
\bibcite{Mottola:1984ar}{48}
\bibcite{schomblond1976conditions}{49}
\bibcite{Candelas:1977tt}{50}
\bibcite{Dowker:1975xj}{51}
\bibcite{Einhorn:2002nu}{52}
\bibcite{birrell1984quantum}{53}
\bibcite{Bousso:2001mw}{54}
\bibcite{Candelas:1976jv}{55}
\bibcite{Lagogiannis:2011st}{56}
\bibcite{Bros:2006gs}{57}
\bibcite{Olver:2010:NHM:1830479}{58}
\bibcite{matsumoto1998mersenne}{59}
\bibcite{Schmitzer:2010to}{60}
\bibcite{Gazeau:2007zz}{61}
\bibcite{Fukuma:2013mx}{62}
\bibcite{Marolf:2010zp}{63}
\bibcite{Jatkar:2011ju}{64}
\bibcite{Marolf:2012kh}{65}
\bibcite{Bros:2008sq}{66}
\bibcite{2000CMaPh.208..623B}{67}
\bibcite{Hollands:2001nf}{68}
\bibcite{Hollands:2001fb}{69}
\bibcite{Brunetti:2005pr}{70}
\bibcite{Brum:2013bia}{71}
\bibcite{Johnston:2008za}{72}
\bibcite{planck}{73}
\bibcite{leray1953hyperbolic}{74}
\bibcite{Avis:1977yn}{75}
\bibcite{Geroch:1970uw}{76}
\bibcite{Geroch:1967fs}{77}
\bibcite{Sorkin:1997gi}{78}
\bibcite{thorne1993closed}{79}
\bibcite{Sorkin:1989ea}{80}
\bibcite{Dray:1991zz}{81}
\bibcite{Gibbons:2011dh}{82}
\bibcite{Wheeler1957604}{83}
\bibcite{wheeler1955geons}{84}
\bibcite{Sorkin:1986geons}{85}
\bibcite{Sorkin:1996yt}{86}
\bibcite{Anderson:1986ww}{87}
\bibcite{Copeland:1988tr}{88}
\bibcite{Louko:1995jw}{89}
\bibstyle{jhep}
\global\@altsecnumformattrue
