\relax 
\providecommand\HyperFirstAtBeginDocument{\AtBeginDocument}
\HyperFirstAtBeginDocument{\ifx\hyper@anchor\@undefined
\global\let\oldcontentsline\contentsline
\gdef\contentsline#1#2#3#4{\oldcontentsline{#1}{#2}{#3}}
\global\let\oldnewlabel\newlabel
\gdef\newlabel#1#2{\newlabelxx{#1}#2}
\gdef\newlabelxx#1#2#3#4#5#6{\oldnewlabel{#1}{{#2}{#3}}}
\AtEndDocument{\ifx\hyper@anchor\@undefined
\let\contentsline\oldcontentsline
\let\newlabel\oldnewlabel
\fi}
\fi}
\global\let\hyper@last\relax 
\gdef\HyperFirstAtBeginDocument#1{#1}
\providecommand\HyField@AuxAddToFields[1]{}
\citation{Fulling:1989nb}
\citation{Wald:2009uh}
\citation{Sorkin:2011pn}
\citation{Siavash}
\citation{Johnston:2009fr}
\@writefile{toc}{\contentsline {chapter}{\numberline {1}Introduction}{9}{chapter.1}}
\@writefile{lof}{\addvspace {10\p@ }}
\@writefile{lot}{\addvspace {10\p@ }}
\@writefile{toc}{\contentsline {section}{\numberline {1.1}Introduction}{9}{section.1.1}}
\citation{Johnston:2009fr}
\citation{hawking1975large}
\@writefile{toc}{\contentsline {chapter}{\numberline {2}Background}{12}{chapter.2}}
\@writefile{lof}{\addvspace {10\p@ }}
\@writefile{lot}{\addvspace {10\p@ }}
\@writefile{toc}{\contentsline {section}{\numberline {2.1}Quantum Field Theory in curved spacetime}{12}{section.2.1}}
\@writefile{toc}{\contentsline {subsection}{\numberline {2.1.1}The standard approach}{12}{subsection.2.1.1}}
\newlabel{eq:KG}{{2.1}{12}{The standard approach\relax }{equation.2.1.1}{}}
\newlabel{eq:GF}{{2.2}{12}{The standard approach\relax }{equation.2.1.2}{}}
\citation{peierls1952commutation}
\citation{peierlsproof}
\newlabel{eq:commutationrelations}{{2.4}{13}{The standard approach\relax }{equation.2.1.4}{}}
\newlabel{eq:firstdefofidelta}{{2.5}{13}{The standard approach\relax }{equation.2.1.5}{}}
\newlabel{eq:KGnorm}{{2.6}{13}{The standard approach\relax }{equation.2.1.6}{}}
\newlabel{eq:modesum}{{2.7}{13}{The standard approach\relax }{equation.2.1.7}{}}
\newlabel{eq:KGortho}{{2.9}{14}{The standard approach\relax }{equation.2.1.9}{}}
\@writefile{toc}{\contentsline {subsection}{\numberline {2.1.2}Non-uniqueness of the quantum state}{14}{subsection.2.1.2}}
\newlabel{eq:bogtransform}{{2.10}{14}{Non-uniqueness of the quantum state\relax }{equation.2.1.10}{}}
\citation{Afshordi:2012jf}
\citation{Fewster:2012ew}
\@writefile{toc}{\contentsline {section}{\numberline {2.2}The SJ vacuum}{15}{section.2.2}}
\citation{Afshordi:2012jf}
\citation{Fewster:2012ew}
\citation{RS}
\newlabel{eq:ideltadef}{{2.17}{16}{The SJ vacuum\relax }{equation.2.2.17}{}}
\newlabel{eq:eigenveceq}{{2.18}{16}{The SJ vacuum\relax }{equation.2.2.18}{}}
\newlabel{eq:SJorthonormality}{{2.21}{17}{The SJ vacuum\relax }{equation.2.2.21}{}}
\newlabel{eq:Q}{{2.23}{17}{The SJ vacuum\relax }{equation.2.2.23}{}}
\newlabel{eq:W}{{2.24}{17}{The SJ vacuum\relax }{equation.2.2.24}{}}
\newlabel{eq:ideltasum}{{2.30}{18}{The SJ vacuum\relax }{equation.2.2.30}{}}
\newlabel{eq:}{{2.31}{18}{The SJ vacuum\relax }{equation.2.2.31}{}}
\newlabel{eq:alphabetarelations}{{2.33}{18}{The SJ vacuum\relax }{equation.2.2.33}{}}
\citation{Afshordi:2012jf}
\citation{Afshordi:2012ez}
\citation{Afshordi:2012ez}
\citation{Sorkin:2011pn}
\newlabel{eq:QuasiBogTans}{{2.34}{19}{The SJ vacuum\relax }{equation.2.2.34}{}}
\@writefile{toc}{\contentsline {section}{\numberline {2.3}A second definition}{19}{section.2.3}}
\newlabel{sec_SJ}{{2.3}{19}{A second definition\relax }{section.2.3}{}}
\citation{Sorkin:2011pn}
\citation{Johnston:2009fr}
\citation{Johnston:2010su}
\citation{Siavash}
\newlabel{eq:defpjfunctional}{{2.39}{21}{A second definition\relax }{equation.2.3.39}{}}
\newlabel{eq:SJpaulijordan}{{2.41}{21}{A second definition\relax }{equation.2.3.41}{}}
\newlabel{eq:SJwightman}{{2.42}{21}{A second definition\relax }{equation.2.3.42}{}}
\newlabel{paulijordanmodeexpansion}{{2.44}{22}{A second definition\relax }{equation.2.3.44}{}}
\newlabel{wightmanmodeexpansion}{{2.45}{22}{A second definition\relax }{equation.2.3.45}{}}
\citation{Fewster}
\@writefile{toc}{\contentsline {chapter}{\numberline {3}The SJ state on the flat causal diamond}{24}{chapter.3}}
\@writefile{lof}{\addvspace {10\p@ }}
\@writefile{lot}{\addvspace {10\p@ }}
\newlabel{chapter:diamond}{{3}{24}{The SJ state on the flat causal diamond\relax }{chapter.3}{}}
\@writefile{toc}{\contentsline {section}{\numberline {3.1}The massless scalar field in two-dimensional flat spacetimes}{24}{section.3.1}}
\newlabel{mink}{{3.1}{24}{The massless scalar field in two-dimensional flat spacetimes\relax }{equation.3.1.1}{}}
\newlabel{KG_mink}{{3.2}{24}{The massless scalar field in two-dimensional flat spacetimes\relax }{equation.3.1.2}{}}
\newlabel{modes}{{3.3}{24}{The massless scalar field in two-dimensional flat spacetimes\relax }{equation.3.1.3}{}}
\citation{Coleman:1973ci}
\citation{Abdalla:1991vua}
\citation{Faber:2002ve}
\citation{Abdalla:1991vua}
\newlabel{Wight_Mink_cutoff}{{3.5}{25}{The massless scalar field in two-dimensional flat spacetimes\relax }{equation.3.1.5}{}}
\newlabel{Wight_Mink}{{3.6}{25}{The massless scalar field in two-dimensional flat spacetimes\relax }{equation.3.1.6}{}}
\citation{Rindler:1966zz}
\citation{Rindler:2006km}
\citation{Fulling:1972md}
\newlabel{rindler}{{3.8}{26}{The massless scalar field in two-dimensional flat spacetimes\relax }{equation.3.1.8}{}}
\newlabel{16}{{3.9}{26}{The massless scalar field in two-dimensional flat spacetimes\relax }{equation.3.1.9}{}}
\citation{Fulling:1972md}
\citation{Davies:1974th}
\citation{Unruh:1976db}
\@writefile{lof}{\contentsline {figure}{\numberline {3.1}{\ignorespaces The right and left Rindler wedges of two-dimensional Minkowski spacetime.\relax }}{27}{figure.caption.5}}
\providecommand*\caption@xref[2]{\@setref\relax\@undefined{#1}}
\newlabel{wedge}{{3.1}{27}{The right and left Rindler wedges of two-dimensional Minkowski spacetime.\relax \relax }{figure.caption.5}{}}
\newlabel{20}{{3.10}{27}{The massless scalar field in two-dimensional flat spacetimes\relax }{equation.3.1.10}{}}
\citation{Siavash}
\@writefile{toc}{\contentsline {section}{\numberline {3.2}The massless SJ two-point function in the flat causal diamond}{28}{section.3.2}}
\newlabel{sec_diamond}{{3.2}{28}{The massless SJ two-point function in the flat causal diamond\relax }{section.3.2}{}}
\@writefile{lof}{\contentsline {figure}{\numberline {3.2}{\ignorespaces The causal diamond, $u,v\in (-L,L)$. The shaded portions of the diagram represent the centre $(i)$ and corner $(ii)$ regions of interest in section\nobreakspace  {}\ref  {sec_results}.\relax }}{29}{figure.caption.6}}
\newlabel{diamond}{{3.2}{29}{The causal diamond, $u,v\in (-L,L)$. The shaded portions of the diagram represent the centre $(i)$ and corner $(ii)$ regions of interest in section~\ref {sec_results}.\relax \relax }{figure.caption.6}{}}
\citation{Johnston:2010su}
\citation{Johnston:2010su}
\citation{Johnston:2010su}
\citation{stone1979linear}
\citation{Johnston:2010su}
\citation{speigel1953summation}
\newlabel{36}{{3.13}{30}{The massless SJ two-point function in the flat causal diamond\relax }{equation.3.2.13}{}}
\newlabel{eq:HilbertSchmidmink}{{3.14}{30}{The massless SJ two-point function in the flat causal diamond\relax }{equation.3.2.14}{}}
\newlabel{eq:SJfunctions}{{3.15}{30}{The massless SJ two-point function in the flat causal diamond\relax }{equation.3.2.15}{}}
\newlabel{46}{{3.16}{30}{The massless SJ two-point function in the flat causal diamond\relax }{equation.3.2.16}{}}
\@writefile{lof}{\contentsline {figure}{\numberline {3.3}{\ignorespaces Plot of $\qopname  \relax o{tan}x$ and $2x$ along with vertical lines at $\frac  {2n-1}{2}\pi $ for $n\in \mathbb  Z$. The values of the summation variable are the positions of the intersections $\qopname  \relax o{tan}x = 2x>0$.\relax }}{31}{figure.caption.7}}
\newlabel{Transcendental plot}{{3.3}{31}{Plot of $\tan x$ and $2x$ along with vertical lines at $\frac {2n-1}{2}\pi $ for $n\in \mathbb Z$. The values of the summation variable are the positions of the intersections $\tan x = 2x>0$.\relax \relax }{figure.caption.7}{}}
\newlabel{47}{{3.17}{31}{The massless SJ two-point function in the flat causal diamond\relax }{equation.3.2.17}{}}
\newlabel{eq:sum1}{{3.18}{31}{The massless SJ two-point function in the flat causal diamond\relax }{equation.3.2.18}{}}
\newlabel{eq:firstsum}{{3.19}{31}{The massless SJ two-point function in the flat causal diamond\relax }{equation.3.2.19}{}}
\newlabel{eq:sum2}{{3.20}{32}{The massless SJ two-point function in the flat causal diamond\relax }{equation.3.2.20}{}}
\newlabel{eq:epsdef}{{3.22}{32}{The massless SJ two-point function in the flat causal diamond\relax }{equation.3.2.22}{}}
\newlabel{eq:secondsum}{{3.23}{32}{The massless SJ two-point function in the flat causal diamond\relax }{equation.3.2.23}{}}
\newlabel{eq:SJbox}{{3.24}{33}{The massless SJ two-point function in the flat causal diamond\relax }{equation.3.2.24}{}}
\@writefile{toc}{\contentsline {subsection}{\numberline {3.2.1}The SJ state in the centre and corner}{33}{subsection.3.2.1}}
\newlabel{sec_results}{{3.2.1}{33}{The SJ state in the centre and corner\relax }{subsection.3.2.1}{}}
\newlabel{eq:restrict}{{3.25}{33}{The SJ state in the centre and corner\relax }{equation.3.2.25}{}}
\@writefile{toc}{\contentsline {subsubsection}{The centre}{34}{section*.8}}
\newlabel{eq:SJtpcentrecomplete}{{3.28}{35}{The centre\relax }{equation.3.2.28}{}}
\newlabel{eq:lambda}{{3.29}{35}{The centre\relax }{equation.3.2.29}{}}
\@writefile{toc}{\contentsline {subsubsection}{The corner}{35}{section*.9}}
\citation{Birrell:1982ix}
\citation{Davies:1976hi}
\newlabel{64}{{3.31}{36}{The corner\relax }{equation.3.2.31}{}}
\newlabel{65}{{3.32}{36}{The corner\relax }{equation.3.2.32}{}}
\citation{Johnston:2009fr}
\citation{Johnston:2010su}
\citation{Bombelli:1987aa}
\@writefile{toc}{\contentsline {section}{\numberline {3.3}Comparison with the discrete SJ vacuum}{37}{section.3.3}}
\newlabel{sec_cset}{{3.3}{37}{Comparison with the discrete SJ vacuum\relax }{section.3.3}{}}
\citation{Bombelli:1987aa}
\citation{Sorkin:2003bx}
\citation{Henson:2006kf}
\citation{Bombelli:2006nm}
\@writefile{toc}{\contentsline {subsection}{\numberline {3.3.1}Causal sets and discrete propagators}{38}{subsection.3.3.1}}
\citation{Johnston:2010su}
\citation{Johnston:2009fr}
\citation{Sorkin:2007qi}
\citation{Johnston:2008za}
\citation{Johnston:2009fr}
\@writefile{lof}{\contentsline {figure}{\numberline {3.4}{\ignorespaces An $N=2^{11}=2048$ element sprinkling into a diamond $C_L$ (with $L=2^{\frac  92}$ in natural units). The subregions corresponding to the centre $(i)$ and the corner $(ii)$ are highlighted.\relax }}{40}{figure.caption.10}}
\newlabel{causetsprinkling}{{3.4}{40}{An $N=2^{11}=2048$ element sprinkling into a diamond $C_L$ (with $L=2^{\frac 92}$ in natural units). The subregions corresponding to the centre $(i)$ and the corner $(ii)$ are highlighted.\relax \relax }{figure.caption.10}{}}
\@writefile{toc}{\contentsline {subsection}{\numberline {3.3.2}The SJ vacuum in the centre}{40}{subsection.3.3.2}}
\@writefile{lof}{\contentsline {figure}{\numberline {3.5}{\ignorespaces The real parts of the continuum two-point function $W_{M, \lambda }(x,x')$ (black line) with $\lambda =0.02$ and the discrete SJ two-point function $w_{ij}$ (blue scatter) in the centre of the finite diamond $C_L$ with $L=2^\frac  92$, plotted against the proper time $|d|$ for timelike separated events.\relax }}{41}{figure.caption.11}}
\newlabel{fm}{{3.5}{41}{The real parts of the continuum two-point function $W_{M, \lambda }(x,x')$ (black line) with $\lambda =0.02$ and the discrete SJ two-point function $w_{ij}$ (blue scatter) in the centre of the finite diamond $C_L$ with $L=2^\frac 92$, plotted against the proper time $|d|$ for timelike separated events.\relax \relax }{figure.caption.11}{}}
\newlabel{eq:sjcentre}{{3.33}{41}{The SJ vacuum in the centre\relax }{equation.3.3.33}{}}
\@writefile{toc}{\contentsline {subsection}{\numberline {3.3.3}The SJ vacuum in the corner and in the full diamond}{42}{subsection.3.3.3}}
\@writefile{toc}{\contentsline {section}{\numberline {3.4}Corrections to the SJ two-point function}{43}{section.3.4}}
\newlabel{eq:corr}{{3.34}{43}{Corrections to the SJ two-point function\relax }{equation.3.4.34}{}}
\@writefile{toc}{\contentsline {section}{\numberline {3.5}Conclusions}{45}{section.3.5}}
\newlabel{sec_conclude}{{3.5}{45}{Conclusions\relax }{section.3.5}{}}
\citation{Dirac:1933}
\citation{Sorkin:2011pn}
\@writefile{lof}{\contentsline {figure}{\numberline {3.6}{\ignorespaces Correlation plots for the two-point functions in the corner of the causal diamond. The horizontal axis represents the causal set two-point function $w^{ij}$. The vertical axes represent, from left to right: the SJ, the Minkowski, the mirror, and the Rindler two-point functions.\relax }}{48}{figure.caption.12}}
\newlabel{fig:corrcorner}{{3.6}{48}{Correlation plots for the two-point functions in the corner of the causal diamond. The horizontal axis represents the causal set two-point function $w^{ij}$. The vertical axes represent, from left to right: the SJ, the Minkowski, the mirror, and the Rindler two-point functions.\relax \relax }{figure.caption.12}{}}
\@writefile{lof}{\contentsline {figure}{\numberline {3.7}{\ignorespaces Correlation plots for the two-point functions in the full causal diamond. The horizontal axis represents the causal set two-point function $w^{ij}$. The vertical axes represent, from left to right: the SJ, the Minkowski, the left mirror, the box (two mirrors), and the Rindler two-point functions.\relax }}{49}{figure.caption.13}}
\newlabel{fig:corrfull}{{3.7}{49}{Correlation plots for the two-point functions in the full causal diamond. The horizontal axis represents the causal set two-point function $w^{ij}$. The vertical axes represent, from left to right: the SJ, the Minkowski, the left mirror, the box (two mirrors), and the Rindler two-point functions.\relax \relax }{figure.caption.13}{}}
\@writefile{lof}{\contentsline {figure}{\numberline {3.8}{\ignorespaces A plot of $\epsilon (u,v;u',v')$ in the centre (left) and in the corner (right). The vertical axis corresponds to $\epsilon (u,v;u',v')$ and the horizontal axis is $-\textrm  {ln}_{10}(V_\mathrm  {sub}/V)$.\relax }}{50}{figure.caption.14}}
\newlabel{fig:epsilon}{{3.8}{50}{A plot of $\epsilon (u,v;u',v')$ in the centre (left) and in the corner (right). The vertical axis corresponds to $\epsilon (u,v;u',v')$ and the horizontal axis is $-\Log _{10}(V_\mathrm {sub}/V)$.\relax \relax }{figure.caption.14}{}}
\citation{hawking1975particle}
\citation{fulling1973nonuniqueness}
\citation{davies1975scalar}
\citation{unruh1976notes}
\citation{Mukhanov1992203}
\citation{allen1985vacuum}
\citation{wald2009formulation}
\citation{Afshordi:2012jf}
\@writefile{toc}{\contentsline {chapter}{\numberline {4}The SJ state in De Sitter Space}{51}{chapter.4}}
\@writefile{lof}{\addvspace {10\p@ }}
\@writefile{lot}{\addvspace {10\p@ }}
\@writefile{toc}{\contentsline {section}{\numberline {4.1}Introduction}{51}{section.4.1}}
\citation{Johnston:2008za}
\citation{Johnston:2009fr}
\citation{Afshordi:2012jf}
\citation{Fewster:2012ew}
\citation{Afshordi:2012jf}
\citation{Afshordi:2012ez}
\citation{Afshordi:2012jf}
\citation{Fewster:2012ew}
\@writefile{lot}{\contentsline {table}{\numberline {4.1}{\ignorespaces .}}{53}{table.caption.15}}
\newlabel{tab:SJstates}{{4.1}{53}{}{table.caption.15}{}}
\citation{Gazeau:2007zz}
\citation{Afshordi:2012jf}
\citation{bunch1978quantum}
\citation{Mottola:1984ar}
\citation{allen1985vacuum}
\@writefile{toc}{\contentsline {section}{\numberline {4.2}The SJ vacuum on de Sitter space}{54}{section.4.2}}
\citation{tagirov1973consequences}
\citation{Bros:2006gs}
\@writefile{toc}{\contentsline {subsection}{\numberline {4.2.1}The SJ vacuum on the Poincar\'e patch}{55}{subsection.4.2.1}}
\newlabel{app:poincare}{{4.2.1}{55}{The SJ vacuum on the Poincar\'e patch\relax }{subsection.4.2.1}{}}
\newlabel{eq:poincaremodes2}{{4.2}{55}{The SJ vacuum on the Poincar\'e patch\relax }{equation.4.2.2}{}}
\newlabel{eq:BogGeneral}{{4.8}{56}{The SJ vacuum on the Poincar\'e patch\relax }{equation.4.2.8}{}}
\newlabel{eq:poincareratio}{{4.9}{56}{The SJ vacuum on the Poincar\'e patch\relax }{equation.4.2.9}{}}
\citation{Olver:2010:NHM:1830479}
\newlabel{eq:poincareratio2}{{4.12}{57}{The SJ vacuum on the Poincar\'e patch\relax }{equation.4.2.12}{}}
\newlabel{eq:hank}{{4.13}{57}{The SJ vacuum on the Poincar\'e patch\relax }{equation.4.2.13}{}}
\newlabel{eq:hank}{{4.14}{57}{The SJ vacuum on the Poincar\'e patch\relax }{equation.4.2.14}{}}
\citation{Olver:2010:NHM:1830479}
\citation{Olver:2010:NHM:1830479}
\newlabel{gamma}{{4.18}{58}{The SJ vacuum on the Poincar\'e patch\relax }{equation.4.2.18}{}}
\@writefile{toc}{\contentsline {subsection}{\numberline {4.2.2}The SJ vacuum on the global patch}{59}{subsection.4.2.2}}
\newlabel{eq:BogGeneral2}{{4.29}{60}{The SJ vacuum on the global patch\relax }{equation.4.2.29}{}}
\newlabel{eq:globalratio}{{4.30}{60}{The SJ vacuum on the global patch\relax }{equation.4.2.30}{}}
\citation{Bousso:2001mw}
\citation{Lagogiannis:2011st}
\newlabel{eq:globalcoeffs}{{4.31}{61}{The SJ vacuum on the global patch\relax }{equation.4.2.31}{}}
\newlabel{eq:mavaceven}{{4.35}{61}{The SJ vacuum on the global patch\relax }{equation.4.2.35}{}}
\newlabel{eq:mavacodd}{{4.36}{61}{The SJ vacuum on the global patch\relax }{equation.4.2.36}{}}
\@writefile{toc}{\contentsline {section}{\numberline {4.3}The discrete SJ state on a sprinkling into $dS^2$}{62}{section.4.3}}
\@writefile{lof}{\contentsline {figure}{\numberline {4.1}{\ignorespaces  The Sorkin-Johnston (SJ) vacuum in the global patch of $3+1$ dimensional de Sitter space. The SJ modefunctions $u^{SJ}_{Lj}$ are related to those of the Euclidean vacuum $u^{E}_{Lj}$ by the Bogoliubov transformation $u^{SJ}_{Lj}=\qopname  \relax o{cosh}(\alpha )u^{E}_{Lj}+\qopname  \relax o{sinh}(\alpha )e^{i\beta }\overline  {u}^{E}_{Lj}$, the second coefficient of which is plotted here. Depending on the product $m\ell $, where $m$ is the mass of the field and $\ell $ is the de Sitter radius, the SJ vacuum corresponds to different $\alpha $-vacua. For $m\ell \ge 3/2$ and $m\ell =\sqrt  {5/4}$, it coincides with the Euclidean vacuum. The prescription fails for $m\ell =\sqrt  {2}$. \relax }}{63}{figure.caption.16}}
\newlabel{fig:betaplot}{{4.1}{63}{The Sorkin-Johnston (SJ) vacuum in the global patch of $3+1$ dimensional de Sitter space. The SJ modefunctions $u^{SJ}_{Lj}$ are related to those of the Euclidean vacuum $u^{E}_{Lj}$ by the Bogoliubov transformation $u^{SJ}_{Lj}=\cosh (\alpha )u^{E}_{Lj}+\sinh (\alpha )e^{i\beta }\overline {u}^{E}_{Lj}$, the second coefficient of which is plotted here. Depending on the product $m\ell $, where $m$ is the mass of the field and $\ell $ is the de Sitter radius, the SJ vacuum corresponds to different $\alpha $-vacua. For $m\ell \ge 3/2$ and $m\ell =\sqrt {5/4}$, it coincides with the Euclidean vacuum. The prescription fails for $m\ell =\sqrt {2}$. \relax \relax }{figure.caption.16}{}}
\@writefile{toc}{\contentsline {subsection}{\numberline {4.3.1}Sprinkling into a causal diamond in $dS^2$}{63}{subsection.4.3.1}}
\citation{matsumoto1998mersenne}
\citation{Schmitzer:2010to}
\newlabel{eq:conditiononf}{{4.39}{64}{Sprinkling into a causal diamond in $dS^2$\relax }{equation.4.3.39}{}}
\citation{Afshordi:2012ez}
\@writefile{lof}{\contentsline {figure}{\numberline {4.2}{\ignorespaces An $N=1010$ element sprinkling with density $\rho =76\ell ^{-2}$ into a causal diamond of length $\tau =8\ell $ in two-dimensional de Sitter space, visualised in the embedding three-dimensional Minkowski space (see Appendix\nobreakspace  {}\ref  {dSgeom}). The de Sitter radius has been set to $\ell =1$. \relax }}{65}{figure.caption.17}}
\newlabel{fig:desittersprinkling}{{4.2}{65}{An $N=1010$ element sprinkling with density $\rho =76\ell ^{-2}$ into a causal diamond of length $\tau =8\ell $ in two-dimensional de Sitter space, visualised in the embedding three-dimensional Minkowski space (see Appendix~\ref {dSgeom}). The de Sitter radius has been set to $\ell =1$. \relax \relax }{figure.caption.17}{}}
\@writefile{toc}{\contentsline {subsection}{\numberline {4.3.2}Simulation results}{65}{subsection.4.3.2}}
\newlabel{fig:retprop}{{4.3}{66}{\relax }{figure.caption.18}{}}
\citation{Fukuma:2013mx}
\citation{Marolf:2010zp}
\citation{Jatkar:2011ju}
\citation{Marolf:2012kh}
\citation{Bros:2008sq}
\citation{Bros:2006gs}
\@writefile{toc}{\contentsline {section}{\numberline {4.4}Conclusions}{67}{section.4.4}}
\newlabel{timelike}{{4.4a}{68}{Timelike\relax \relax }{figure.caption.19}{}}
\newlabel{sub@timelike}{{a}{68}{Timelike\relax \relax }{figure.caption.19}{}}
\@writefile{lof}{\contentsline {figure}{\numberline {4.4}{\ignorespaces  The Hadamard function $\mathbf  H_{SJ}$ on a causal set obtained through an $N=1010$ sprinkling of a causal diamond of length $\tau =8\ell $ in $1+1$ dimensional de Sitter space. The mass of the field is taken to be $m=2.36\ell ^{-1}$, and the de Sitter radius $\ell $ is set to unity. The geodesic distance $|d|$ between the two arguments of the function is plotted on the horizontal axis for (a) timelike and (b) spacelike separated points. The error bars show the standard deviation about the mean of $\mathbf  H_{SJ}$ for binned values of $|d|$. $H_{\alpha ,\beta }(x,y)$ refers to the Hadamard function of the $\alpha $-vacua (see Appendix \ref  {MAstates}). The function $H_{0.1,0}$ has been omitted in (a), since it is indistinguishable from the Euclidean function $H_E$. \relax }}{68}{figure.caption.19}}
\newlabel{fig:causetplot}{{4.4}{68}{The Hadamard function $\mathbf H_{SJ}$ on a causal set obtained through an $N=1010$ sprinkling of a causal diamond of length $\tau =8\ell $ in $1+1$ dimensional de Sitter space. The mass of the field is taken to be $m=2.36\ell ^{-1}$, and the de Sitter radius $\ell $ is set to unity. The geodesic distance $|d|$ between the two arguments of the function is plotted on the horizontal axis for (a) timelike and (b) spacelike separated points. The error bars show the standard deviation about the mean of $\mathbf H_{SJ}$ for binned values of $|d|$. $H_{\alpha ,\beta }(x,y)$ refers to the Hadamard function of the $\alpha $-vacua (see Appendix \ref {MAstates}). The function $H_{0.1,0}$ has been omitted in (a), since it is indistinguishable from the Euclidean function $H_E$. \relax \relax }{figure.caption.19}{}}
\citation{allen1985vacuum}
\citation{Fewster:2012ew}
\citation{2000CMaPh.208..623B}
\citation{Hollands:2001nf}
\citation{Hollands:2001fb}
\citation{Brunetti:2005pr}
\citation{Johnston:2008za}
\citation{planck}
\citation{schmidt1993sitter}
\@writefile{toc}{\contentsline {section}{\numberline {4.5}Geometry of de Sitter Space}{71}{section.4.5}}
\newlabel{dSgeom}{{4.5}{71}{Geometry of de Sitter Space\relax }{section.4.5}{}}
\newlabel{eq:desitter}{{4.42}{71}{Geometry of de Sitter Space\relax }{equation.4.5.42}{}}
\newlabel{ZZ}{{4.43}{71}{Geometry of de Sitter Space\relax }{equation.4.5.43}{}}
\citation{Spradlin:2001pw}
\@writefile{lof}{\contentsline {figure}{\numberline {4.5}{\ignorespaces The Penrose diagram of de Sitter space. The shaded area represents the (expanding) Poincar\'e patch. Dotted lines are surfaces of constant $t$ ($d$-spheres), dashed lines are surfaces of constant $\eta $ ($d$-planes). \relax }}{72}{figure.caption.20}}
\newlabel{fig:desitterpenrose}{{4.5}{72}{The Penrose diagram of de Sitter space. The shaded area represents the (expanding) Poincar\'e patch. Dotted lines are surfaces of constant $t$ ($d$-spheres), dashed lines are surfaces of constant $\eta $ ($d$-planes). \relax \relax }{figure.caption.20}{}}
\@writefile{toc}{\contentsline {subsection}{\numberline {4.5.1}Global patch of de Sitter ($dS^D$)}{73}{subsection.4.5.1}}
\newlabel{GlobalCoord}{{4.5.1}{73}{Global patch of de Sitter ($dS^D$)\relax }{subsection.4.5.1}{}}
\newlabel{eq:globalMetric}{{4.49}{73}{Global patch of de Sitter ($dS^D$)\relax }{equation.4.5.49}{}}
\@writefile{toc}{\contentsline {subsection}{\numberline {4.5.2}Cosmological/Poincar\'e patch of de Sitter ($dS^D_P$)}{74}{subsection.4.5.2}}
\newlabel{CosmoCoord}{{4.5.2}{74}{Cosmological/Poincar\'e patch of de Sitter ($dS^D_P$)\relax }{subsection.4.5.2}{}}
\newlabel{eq:poincareCoord}{{4.50}{74}{Cosmological/Poincar\'e patch of de Sitter ($dS^D_P$)\relax }{equation.4.5.50}{}}
\newlabel{eq:poincareMetric}{{4.51}{74}{Cosmological/Poincar\'e patch of de Sitter ($dS^D_P$)\relax }{equation.4.5.51}{}}
\@writefile{toc}{\contentsline {section}{\numberline {4.6}Vacuum states on de Sitter space}{74}{section.4.6}}
\newlabel{dSVac}{{4.6}{74}{Vacuum states on de Sitter space\relax }{section.4.6}{}}
\citation{Olver:2010:NHM:1830479}
\@writefile{toc}{\contentsline {subsection}{\numberline {4.6.1}Bunch-Davies modes on $dS^D_P$}{75}{subsection.4.6.1}}
\newlabel{AppBD}{{4.6.1}{75}{Bunch-Davies modes on $dS^D_P$\relax }{subsection.4.6.1}{}}
\newlabel{bessel}{{4.53}{75}{Bunch-Davies modes on $dS^D_P$\relax }{equation.4.6.53}{}}
\newlabel{nunu}{{4.54}{75}{Bunch-Davies modes on $dS^D_P$\relax }{equation.4.6.54}{}}
\newlabel{KGBD}{{4.55}{75}{Bunch-Davies modes on $dS^D_P$\relax }{equation.4.6.55}{}}
\newlabel{temp}{{4.56}{75}{Bunch-Davies modes on $dS^D_P$\relax }{equation.4.6.56}{}}
\citation{Olver:2010:NHM:1830479}
\citation{Olver:2010:NHM:1830479}
\citation{Bousso:2001mw}
\newlabel{eq:bdrel}{{4.57}{76}{Bunch-Davies modes on $dS^D_P$\relax }{equation.4.6.57}{}}
\newlabel{eq:poincaremodes}{{4.59}{76}{Bunch-Davies modes on $dS^D_P$\relax }{equation.4.6.59}{}}
\citation{Bousso:2001mw}
\@writefile{toc}{\contentsline {subsection}{\numberline {4.6.2}Euclidean modes on $dS^D$}{77}{subsection.4.6.2}}
\newlabel{AppEuc}{{4.6.2}{77}{Euclidean modes on $dS^D$\relax }{subsection.4.6.2}{}}
\newlabel{ccylj}{{4.62}{77}{Euclidean modes on $dS^D$\relax }{equation.4.6.62}{}}
\citation{Olver:2010:NHM:1830479}
\newlabel{KGE}{{4.68}{78}{Euclidean modes on $dS^D$\relax }{equation.4.6.68}{}}
\newlabel{eucI}{{4.69}{78}{Euclidean modes on $dS^D$\relax }{equation.4.6.69}{}}
\newlabel{FinInf}{{4.69}{78}{Euclidean modes on $dS^D$\relax }{equation.4.6.69}{}}
\citation{Olver:2010:NHM:1830479}
\citation{Olver:2010:NHM:1830479}
\citation{Olver:2010:NHM:1830479}
\citation{Olver:2010:NHM:1830479}
\citation{Olver:2010:NHM:1830479}
\newlabel{eq:allentrickeuclidean}{{4.75}{80}{Euclidean modes on $dS^D$\relax }{equation.4.6.75}{}}
\newlabel{minusCC}{{4.76}{80}{Euclidean modes on $dS^D$\relax }{equation.4.6.76}{}}
\newlabel{ccHyper}{{4.78}{80}{Euclidean modes on $dS^D$\relax }{equation.4.6.78}{}}
\citation{bunch1978quantum}
\citation{Tagirov:1972vv}
\citation{Tagirov:1972vv}
\citation{Candelas:1976jv}
\citation{allen1985vacuum}
\newlabel{eq:globalmodes}{{4.81}{81}{Euclidean modes on $dS^D$\relax }{equation.4.6.81}{}}
\@writefile{toc}{\contentsline {subsection}{\numberline {4.6.3}Two-point functions and $\alpha $-vacua}{81}{subsection.4.6.3}}
\newlabel{MAstates}{{4.6.3}{81}{Two-point functions and $\alpha $-vacua\relax }{subsection.4.6.3}{}}
\newlabel{eq:euclideantwopointfunction}{{4.83}{81}{Two-point functions and $\alpha $-vacua\relax }{equation.4.6.83}{}}
\citation{allen1985vacuum}
\citation{allen1985vacuum}
\citation{allen1985vacuum}
\citation{Mottola:1984ar}
\citation{Bousso:2001mw}
\newlabel{eq:mamodesP}{{4.84}{82}{Two-point functions and $\alpha $-vacua\relax }{equation.4.6.84}{}}
\newlabel{eq:mamodes}{{4.85}{82}{Two-point functions and $\alpha $-vacua\relax }{equation.4.6.85}{}}
\newlabel{eq:MApropagator}{{4.86}{82}{Two-point functions and $\alpha $-vacua\relax }{equation.4.6.86}{}}
\citation{Mottola:1984ar}
\citation{Bousso:2001mw}
\citation{Bousso:2001mw}
\citation{Bousso:2001mw}
\citation{Lagogiannis:2011st}
\@writefile{toc}{\contentsline {section}{\numberline {4.7}Calculation of Inner Products}{84}{section.4.7}}
\@writefile{toc}{\contentsline {subsection}{\numberline {4.7.1}Global chart}{84}{subsection.4.7.1}}
\newlabel{app:global}{{4.7.1}{84}{Global chart\relax }{subsection.4.7.1}{}}
\@writefile{toc}{\contentsline {chapter}{\numberline {5}Some remarks on the SJ state and topology change}{87}{chapter.5}}
\@writefile{lof}{\addvspace {10\p@ }}
\@writefile{lot}{\addvspace {10\p@ }}
\@writefile{lof}{\contentsline {figure}{\numberline {5.1}{\ignorespaces The trousers spacetime\relax }}{89}{figure.caption.21}}
\newlabel{fig:trousers-flattened-raw}{{5.1}{89}{The trousers spacetime\relax \relax }{figure.caption.21}{}}
\@writefile{toc}{\contentsline {section}{\numberline {5.1}Quantum Field Theory on the Trousers}{90}{section.5.1}}
\@writefile{lof}{\contentsline {figure}{\numberline {5.2}{\ignorespaces The pair of diamonds.\relax }}{92}{figure.caption.23}}
\newlabel{fig:pairofdiamonds}{{5.2}{92}{The pair of diamonds.\relax \relax }{figure.caption.23}{}}
\@writefile{toc}{\contentsline {section}{\numberline {5.2}The pair of diamonds}{92}{section.5.2}}
\@writefile{lot}{\contentsline {table}{\numberline {5.1}{\ignorespaces .}}{94}{table.caption.24}}
\newlabel{tab:pod-regions}{{5.1}{94}{}{table.caption.24}{}}
\@writefile{lof}{\contentsline {figure}{\numberline {5.3}{\ignorespaces A naive ansatz for the retarded propagator $G_R(x,y)=-\frac  12\chi (x\succ y)$ on the trousers, drawn as a function of $y$ for fixed $x\in J^+(c)$ represented by the black dot. The function is equal to $-\frac  12$ in the shaded region and zero everywhere else. The dashed contour corresponds to the boundary of a causal diamond centred on the singularity.\relax }}{95}{figure.caption.25}}
\newlabel{fig:gret-on-pod-false}{{5.3}{95}{A naive ansatz for the retarded propagator $G_R(x,y)=-\frac 12\chi (x\succ y)$ on the trousers, drawn as a function of $y$ for fixed $x\in J^+(c)$ represented by the black dot. The function is equal to $-\frac 12$ in the shaded region and zero everywhere else. The dashed contour corresponds to the boundary of a causal diamond centred on the singularity.\relax \relax }{figure.caption.25}{}}
\@writefile{toc}{\contentsline {section}{\numberline {5.3}Propagators on the trousers}{95}{section.5.3}}
\newlabel{eq:alternativegreen}{{5.6}{96}{Propagators on the trousers\relax }{equation.5.3.6}{}}
\newlabel{eq:contour-op}{{5.7}{97}{Propagators on the trousers\relax }{equation.5.3.7}{}}
\newlabel{eq:alternativegreen2}{{5.8}{97}{Propagators on the trousers\relax }{equation.5.3.8}{}}
\newlabel{eq:twoeoms}{{5.9}{98}{Propagators on the trousers\relax }{equation.5.3.9}{}}
\newlabel{eq:podpropcond1}{{5.11}{99}{Propagators on the trousers\relax }{equation.5.3.11}{}}
\@writefile{lof}{\contentsline {figure}{\numberline {5.4}{\ignorespaces The Pauli-Jordan function on the trousers. Depicted here is $\Delta _p(x,y)$ as a function of $y$, with the first argument $x$ fixed (at the dot) in the causal future of the crotch singularity. Here $q=1-p$.\relax }}{100}{figure.caption.26}}
\newlabel{fig:pj-on-pod}{{5.4}{100}{The Pauli-Jordan function on the trousers. Depicted here is $\Delta _p(x,y)$ as a function of $y$, with the first argument $x$ fixed (at the dot) in the causal future of the crotch singularity. Here $q=1-p$.\relax \relax }{figure.caption.26}{}}
\@writefile{toc}{\contentsline {section}{\numberline {5.4}Propagation of plane waves past the singularity}{101}{section.5.4}}
\newlabel{eq:forwardprop}{{5.15}{101}{Propagation of plane waves past the singularity\relax }{equation.5.4.15}{}}
\@writefile{toc}{\contentsline {section}{\numberline {5.5}The Pauli-Jordan function and its eigenmodes}{102}{section.5.5}}
\@writefile{toc}{\contentsline {subsection}{\numberline {5.5.1}Counting eigenmodes}{102}{subsection.5.5.1}}
\@writefile{lof}{\contentsline {figure}{\numberline {5.5}{\ignorespaces Hilbert-Schmidt norm on the pair of diamonds as a function of $p$.\relax }}{103}{figure.caption.27}}
\newlabel{fig:hsnorm-pod}{{5.5}{103}{Hilbert-Schmidt norm on the pair of diamonds as a function of $p$.\relax \relax }{figure.caption.27}{}}
\newlabel{eq:hsnormpod}{{5.20}{103}{Counting eigenmodes\relax }{equation.5.5.20}{}}
\@writefile{toc}{\contentsline {subsection}{\numberline {5.5.2}Ordinary plane waves}{103}{subsection.5.5.2}}
\@writefile{toc}{\contentsline {subsection}{\numberline {5.5.3}Restricted plane waves}{104}{subsection.5.5.3}}
\newlabel{eq:iDeltaULDone}{{5.24}{105}{Restricted plane waves\relax }{equation.5.5.24}{}}
\newlabel{eq:iDeltaURDone}{{5.25}{105}{Restricted plane waves\relax }{equation.5.5.25}{}}
\newlabel{eq:iDeltaLRDone}{{5.26}{106}{Restricted plane waves\relax }{equation.5.5.26}{}}
\newlabel{eq:iDeltaLLDone}{{5.27}{106}{Restricted plane waves\relax }{equation.5.5.27}{}}
\@writefile{toc}{\contentsline {subsection}{\numberline {5.5.4}Ordinary plane waves revisited}{106}{subsection.5.5.4}}
\@writefile{toc}{\contentsline {subsection}{\numberline {5.5.5}Restricted constant functions}{107}{subsection.5.5.5}}
\@writefile{toc}{\contentsline {section}{\numberline {.1}Forward propagation using the Green function}{109}{section..1}}
\bibdata{thesisbib}
\bibstyle{jhep}
